Name,Team,Division,BodyweightKg,WeightClassKg,State,Country,BirthYear,Squat1Kg,Squat2Kg,Squat3Kg,Best3SquatKg,Bench1Kg,Bench2Kg,Bench3Kg,Best3BenchKg,Deadlift1Kg,Deadlift2Kg,Deadlift3Kg,Best3DeadliftKg,TotalKg,Event,Place,Equipment,Sex,BirthDate,Age
Mona Shafiei,BRN,FR-O,46.7,47,,,,-97.5,97.5,105,105,62.5,67.5,72.5,72.5,122.5,132.5,142.5,142.5,320,SBD,1,Raw,F,,
Naomi Cheong,NOTT,FR-O,46.7,47,,,,65,72.5,-77.5,72.5,32.5,35,-37.5,35,102.5,107.5,-115,107.5,215,SBD,2,Raw,F,,
Bridget Parris,BIRM,FR-O,50.2,52,,,,95,102.5,110,110,42.5,47.5,50,50,117.5,127.5,130,130,290,SBD,1,Raw,F,,
Jessica Davies,NOTT,FR-O,51.5,52,,,,82.5,-90,90,90,52.5,57.5,-60,57.5,127.5,135,-145,135,282.5,SBD,2,Raw,F,,
Victoria Fa Li,CAM,FR-O,49.3,52,,,,85,-90,-90,85,52.5,55,-57.5,55,115,122.5,132.5,132.5,272.5,SBD,3,Raw,F,,
Jolie Liew,UCL,FR-O,50.5,52,,,,90,95,-100,95,57.5,-62.5,62.5,62.5,95,107.5,115,115,272.5,SBD,4,Raw,F,,
Jemima Simpson,BGR,FR-O,50,52,,,,70,75,-77.5,75,50,55,57.5,57.5,102.5,112.5,120,120,252.5,SBD,5,Raw,F,,
Niamh Mulley,LBORO,FR-O,50.5,52,,,,-80,-80,80,80,40,47.5,-52.5,47.5,115,125,-130,125,252.5,SBD,6,Raw,F,,
Hannah Matson,NOTT,FR-O,56.1,57,,,,-117.5,125,127.5,127.5,65,70,72.5,72.5,142.5,152.5,160,160,360,SBD,1,Raw,F,,
Hannah Clayton,SOTON,FR-O,56.4,57,,,,120,125,130,130,70,75.5,78,78,135,142.5,150,150,358,SBD,2,Raw,F,,
Holly Robson-Powell,???,FR-O,55.8,57,,,,107.5,112.5,117.5,117.5,65,70,-76,70,127.5,135,142.5,142.5,330,SBD,3,Raw,F,,
Abigail Dorgan,LEEDS,FR-O,57,57,,,,97.5,105,-112.5,105,55,60,-62.5,60,122.5,132.5,-140,132.5,297.5,SBD,4,Raw,F,,
Effie Menzies,NOTT,FR-O,56.7,57,,,,95,102.5,107.5,107.5,52.5,57.5,60,60,110,117.5,122.5,122.5,290,SBD,5,Raw,F,,
Mollie Donnelly,LAW,FR-O,55.7,57,,,,92.5,-100,100,100,52.5,55,-60,55,110,120,122.5,122.5,277.5,SBD,6,Raw,F,,
Natalie Constantinou,UCL,FR-O,55.8,57,,,,-85,90,95,95,45,47.5,-50,47.5,125,135,-140,135,277.5,SBD,7,Raw,F,,
Rosie Hopkins,NOTT,FR-O,54.8,57,,,,87.5,92.5,95,95,47.5,50,52.5,52.5,115,122.5,127.5,127.5,275,SBD,8,Raw,F,,
Ellie Pacey,SURR,FR-O,56.9,57,SE,England,2001,95,-102.5,107.5,107.5,57.5,60,-67.5,60,92.5,100,107.5,107.5,275,SBD,9,Raw,F,,
Robyn Pettiford,UCL,FR-O,56.9,57,,,,95,102.5,-107.5,102.5,47.5,52.5,-55,52.5,105,112.5,120,120,275,SBD,9,Raw,F,,
Phuong Bui,CAM,FR-O,56.4,57,,,,85,92.5,-97.5,92.5,50,52.5,-55,52.5,120,-127.5,-127.5,120,265,SBD,11,Raw,F,,
Diana Huynh,???,FR-O,55.5,57,,,,100,105,112.5,112.5,40,45,-47.5,45,90,100,-102.5,100,257.5,SBD,12,Raw,F,,
Holly Lambe,CAM,FR-O,56.6,57,,,,85,90,-92.5,90,32.5,37.5,-40,37.5,120,125,130,130,257.5,SBD,13,Raw,F,,
Alexis An Low,UCL,FR-O,56.4,57,GL,England,1997,82.5,-90,90,90,-42.5,42.5,-45,42.5,95,102.5,110,110,242.5,SBD,14,Raw,F,,
Tara Pigott,WARK,FR-O,62,63,,,,140,147.5,152.5,152.5,85,90,92.5,92.5,160,170,175,175,420,SBD,1,Raw,F,,
Emily Griffiths,EXR,FR-O,62.25,63,,,,142.5,150.5,-155.5,150.5,77.5,82.5,85,85,145,-155,-160,145,380.5,SBD,2,Raw,F,,
Beatrice Fishwick,CAM,FR-O,62.3,63,,,,125,132.5,137.5,137.5,80,85,87.5,87.5,132.5,142.5,152.5,152.5,377.5,SBD,3,Raw,F,,
Jessica Jeremaes,EXR,FR-O,62.2,63,,,,122.5,130,-135,130,75,80,82.5,82.5,137.5,150,-165,150,362.5,SBD,4,Raw,F,,
Kathleen Smartt,LEEDS,FR-O,62.05,63,,,,125,132.5,137.5,137.5,57.5,62.5,-67.5,62.5,130,142.5,150,150,350,SBD,5,Raw,F,,
Nicole Cameron,UCL,FR-O,61.3,63,,,,125,130,135,135,55,57.5,60,60,137.5,145,-150,145,340,SBD,6,Raw,F,,
Yasmin Burt,LBORO,FR-O,62.3,63,,,,107.5,115,-120,115,75,80,-82.5,80,120,130,135,135,330,SBD,7,Raw,F,,
Emily Wilkinson,LEEDS,FR-O,61.7,63,,,,100,107.5,112.5,112.5,55,60,-65,60,140,150,155,155,327.5,SBD,8,Raw,F,,
Isidora Radenkovic,OXF,FR-O,60.1,63,,,,112.5,120,125,125,60,-65,-65,60,122.5,132.5,140,140,325,SBD,9,Raw,F,,
Sarah Bethany Glover,NOTT,FR-O,59.85,63,,Isle of Man,,105,112.5,117.5,117.5,52.5,57.5,60,60,130,137.5,142.5,142.5,320,SBD,10,Raw,F,,23
Grace Allinson,DUR,FR-O,62.1,63,,,,95,105,-110,105,65,70,-75,70,135,145,-160,145,320,SBD,11,Raw,F,,
Sharon Satish,NOTT,FR-O,61.75,63,,,,105,107.5,-110,107.5,-67.5,70,-72.5,70,120,130,140,140,317.5,SBD,12,Raw,F,,
Beca Morgan,???,FR-O,59.2,63,,,,102.5,-110,-112.5,102.5,57.5,-60,60,60,140,-150,-155,140,302.5,SBD,13,Raw,F,,
Sophie Fowler,NOTT,FR-O,59.8,63,,,,102.5,110,-115,110,45,50,52.5,52.5,122.5,132.5,140,140,302.5,SBD,14,Raw,F,,
Bayan Fadlalla,NOTT,FR-O,58.25,63,,,,87.5,95,102.5,102.5,50,55,57.5,57.5,117.5,130,140,140,300,SBD,15,Raw,F,,
Hannah O'Brien,UCL,FR-O,60.9,63,,,,97.5,102.5,105,105,57.5,62.5,65,65,115,122.5,130,130,300,SBD,16,Raw,F,,
Olivia Hardingham,BRIST,FR-O,61.8,63,,,,125,135,-142.5,135,45,-50,-50,45,110,120,-127.5,120,300,SBD,17,Raw,F,,
Amber Butterfield,NOTT,FR-O,62.5,63,,,,100,105,110,110,37.5,42.5,-45,42.5,122.5,130,135,135,287.5,SBD,18,Raw,F,,
Georgia Knight,SHEFF,FR-O,59.15,63,,,,102.5,110,-112.5,110,45,50,-52.5,50,125,-137.5,-140,125,285,SBD,19,Raw,F,,
Nadia Laffey,LBORO,FR-O,62.2,63,,,,87.5,95,-100,95,57.5,-62.5,-62.5,57.5,117.5,125,130,130,282.5,SBD,20,Raw,F,,
Alisa Brown,DUR,FR-O,62,63,,,,90,-97.5,97.5,97.5,52.5,-55,57.5,57.5,112.5,122.5,-130,122.5,277.5,SBD,21,Raw,F,,
Katy White,BATH,FR-O,61.5,63,,,,87.5,95,100,100,52.5,-55,-57.5,52.5,107.5,115,120,120,272.5,SBD,22,Raw,F,,
Sophie Smith #1,OXF,FR-O,68,69,,,,120,127.5,130,130,80,88,93,93,165,175,-188,175,398,SBD,1,Raw,F,,
Sharon Sandford,BIRM,FR-O,67.9,69,,,,132.5,142.5,-147.5,142.5,75,80,-85,80,160,170,-177.5,170,392.5,SBD,2,Raw,F,1998-12-18,
Danielle Broom,BOURN,FR-O,68.1,69,,,,135,142.5,147.5,147.5,70,75,77.5,77.5,150,157.5,162.5,162.5,387.5,SBD,3,Raw,F,,
Amy Williams,CAM,FR-O,68.5,69,,,,125,132.5,137.5,137.5,75,80,-82.5,80,145,155,-165,155,372.5,SBD,4,Raw,F,,
Ella Noble,BATH,FR-O,67.3,69,,,,125,127.5,130,130,60,65,-67.5,65,160,170,-175,170,365,SBD,5,Raw,F,,
Emma Williams #1,EXR,FR-O,68,69,,,,130,137.5,-142.5,137.5,62.5,-67.5,-67.5,62.5,150,157.5,165,165,365,SBD,6,Raw,F,,
Isabel Dowling,OXF,FR-O,66.4,69,,,,122.5,130,135,135,75,80,-82.5,80,132.5,142.5,147.5,147.5,362.5,SBD,7,Raw,F,,
Lauren Kernan,BRIST,FR-O,68.6,69,,,,120,127.5,132.5,132.5,70,75,-80,75,140,147.5,155,155,362.5,SBD,8,Raw,F,,
Katherine Cleary,NOTT,FR-O,68.4,69,,,,-125,125,132.5,132.5,75,77.5,-80,77.5,142.5,-147.5,147.5,147.5,357.5,SBD,9,Raw,F,,
Emily Mulligan,NEW,FR-O,67.5,69,,,,120,127.5,135,135,70,75,80,80,125,135,140,140,355,SBD,10,Raw,F,,
Mareva Flandrin,NOTT,FR-O,67.2,69,,,,127.5,132.5,-135,132.5,-75,-80,80,80,127.5,135,140,140,352.5,SBD,11,Raw,F,,
Kamila Marciniak,BIRM,FR-O,67.6,69,,,,102.5,-115,115,115,65,70,-72.5,70,137.5,150,160,160,345,SBD,12,Raw,F,,
Ellie Robins,LBORO,FR-O,66.8,69,,,,120,125,-130,125,62.5,67.5,70,70,125,132.5,140,140,335,SBD,13,Raw,F,,
Llio Godfrey-Flower,BGR,FR-O,67.4,69,,,,102.5,110,-117.5,110,80,85,-87.5,85,120,130,137.5,137.5,332.5,SBD,14,Raw,F,,
Sanjani Murugesh,NOTT,FR-O,68.1,69,,,,-110,115,125,125,60,-65,65,65,120,130,140,140,330,SBD,15,Raw,F,,
Emily Parsons,EXR,FR-O,66.1,69,,,,102.5,110,115,115,62.5,65,-70,65,127.5,140,-150,140,320,SBD,16,Raw,F,,
Tierney McArdle,LEEDS,FR-O,68.9,69,,,,115,120,-127.5,120,47.5,52.5,-55,52.5,135,145,-150,145,317.5,SBD,17,Raw,F,,
Kimberley Dodge,DUR,FR-O,67.2,69,,,,92.5,97.5,102.5,102.5,60,65,-67.5,65,130,140,147.5,147.5,315,SBD,18,Raw,F,,
Niamh Underhill,DEM,FR-O,67.2,69,,,,100,107.5,-112.5,107.5,55,60,62.5,62.5,112.5,-122.5,127.5,127.5,297.5,SBD,19,Raw,F,,
Sally Vaughan,MAN,FR-O,67.2,69,,,,95,110,-120,110,42.5,-47.5,47.5,47.5,125,-135,-135,125,282.5,SBD,20,Raw,F,,
Hannah Sharp,YORK,FR-O,67.3,69,,,,100,107.5,-115,107.5,57.5,-62.5,62.5,62.5,100,112.5,-125,112.5,282.5,SBD,21,Raw,F,,
Lucile Oster,ICL,FR-O,67.3,69,,,,100,105,-110,105,50,55,-60,55,105,115,120,120,280,SBD,22,Raw,F,,
Emily Marston,BRIST,FR-O,67,69,,,,92.5,-102.5,102.5,102.5,37.5,40,42.5,42.5,115,125,130,130,275,SBD,23,Raw,F,,
Safiya Chiappa-Forrester,NOTT,FR-O,73.9,76,,,,145,155,162.5,162.5,80,87.5,90,90,160,170,177.5,177.5,430,SBD,1,Raw,F,,
Grace Howse,LBORO,FR-O,75.2,76,,,,125,132.5,137.5,137.5,90,95,-97.5,95,152.5,162.5,170,170,402.5,SBD,2,Raw,F,,
Alexandra Henry,DUR,FR-O,70.3,76,,,,135,-145,150,150,75,80,-85,80,150,170,-180,170,400,SBD,3,Raw,F,,
Millie Mabbutt,EXR,FR-O,74.3,76,,,,140,150,155,155,67.5,72.5,77.5,77.5,155,167.5,-172.5,167.5,400,SBD,4,Raw,F,,
Odette Tobaiwa,EXR,FR-O,73.4,76,,,,135,142.5,-145,142.5,77.5,85,87.5,87.5,145,155,165,165,395,SBD,5,Raw,F,,
Selina Wells,BRN,FR-O,71.9,76,,,,-142.5,142.5,-150,142.5,60,62.5,-67.5,62.5,155,165,172.5,172.5,377.5,SBD,6,Raw,F,,
Khloe Curnock,ICL,FR-O,71.6,76,,,,122.5,132.5,140,140,60,67.5,-70,67.5,135,145,-152.5,145,352.5,SBD,7,Raw,F,,
Chloe-Lou Hoes,NOTT,FR-O,75.1,76,,,,117.5,125,130,130,65,-70,70,70,140,152.5,-160,152.5,352.5,SBD,8,Raw,F,,
Camila Cardwell,UCL,FR-O,75.3,76,,,,117.5,125,-130,125,50,55,-60,55,137.5,145,155,155,335,SBD,9,Raw,F,,
Jenna Tweddle,DUR,FR-O,72.4,76,,,,107.5,117.5,-122.5,117.5,55,60,-62.5,60,125,135,-137.5,135,312.5,SBD,10,Raw,F,,
Sophie Griffiths,YORK,FR-O,75.2,76,,,,100,107.5,115,115,57.5,-62.5,62.5,62.5,115,125,135,135,312.5,SBD,11,Raw,F,,
Sophia King-Mason,BIRM,FR-O,72.6,76,,,,117.5,125,130,130,50,55,-57.5,55,125,-132.5,-132.5,125,310,SBD,12,Raw,F,,
Sally Sweeney,SHEFF,FR-O,72.7,76,,,,105,-115,115,115,50,52.5,55,55,115,125,132.5,132.5,302.5,SBD,13,Raw,F,,
Beth Taylor #1,BIRM,FR-O,72.7,76,,,,102.5,110,112.5,112.5,52.5,55,57.5,57.5,122.5,130,-135,130,300,SBD,14,Raw,F,,
Lisa Zuehlke,MAN,FR-O,75.1,76,,,,105,115,120,120,47.5,50,52.5,52.5,107.5,120,-130,120,292.5,SBD,15,Raw,F,,
Ella Okko,OXF,FR-O,75.1,76,,,,25,-125,-125,25,70,-75,75,75,75,,,75,175,SBD,16,Raw,F,,
Hannah-Louise Graham,TRENT,FR-O,81.8,84,,,,120,125,130,130,70,75,77.5,77.5,160,170,180,180,387.5,SBD,1,Raw,F,,
Lauren Domfe,CAM,FR-O,82.3,84,,,,127.5,135,142.5,142.5,55,60,62.5,62.5,145,155,165,165,370,SBD,2,Raw,F,,
Teagan Pooler,EXR,FR-O,82.1,84,,,,117.5,-125,125,125,65,70,72.5,72.5,130,140,145,145,342.5,SBD,3,Raw,F,,
Jade Smiles,UCLAN,FR-O,79.25,84,,,,107.5,117.5,-122.5,117.5,47.5,52.5,55,55,140,150,-160,150,322.5,SBD,4,Raw,F,,
Melissa Bird,AECC,FR-O,102.2,84+,,,,160,167.5,172.5,172.5,82.5,87.5,92.5,92.5,165,172.5,177.5,177.5,442.5,SBD,1,Raw,F,,
Milly Stoneley,NOTT,FR-O,96.8,84+,,,,145,155,162.5,162.5,82.5,85.5,88,88,145,152.5,-155,152.5,403,SBD,2,Raw,F,,
Chizaram Egbuziem,LBORO,FR-O,96.6,84+,,,,145,155,-160,155,72.5,-75,75,75,147.5,157.5,170,170,400,SBD,3,Raw,F,,
Faiza Chaudhry,ICL,FR-O,91.85,84+,,,,-140,140,152.5,152.5,67.5,70,72.5,72.5,150,160,-175,160,385,SBD,4,Raw,F,,
Natasha Groome,LEEDS,FR-O,96.05,84+,,,,140,147.5,155,155,55,60,62.5,62.5,147.5,152.5,160,160,377.5,SBD,5,Raw,F,,
Caitlin Davies,BGR,FR-O,123.4,84+,,,,140,150,-157.5,150,,,,,,,,,,SBD,DQ,Raw,F,,
Benedict Grant,EXR,MR-O,58.45,59,SW,England,2001,177.5,187.5,193,193,110,117.5,122.5,122.5,185,200,210,210,525.5,SBD,1,Raw,M,,
Santosh Guru,CAM,MR-O,58.65,59,EM,England,2001,140,147.5,152.5,152.5,97.5,102.5,105,105,190,200,210,210,467.5,SBD,2,Raw,M,,
Faiad Sharif,BATH,MR-O,57,59,,,2002,147.5,157.5,-165,157.5,87.5,97.5,102.5,102.5,187.5,195,-202.5,195,455,SBD,3,Raw,M,,
Bailey James,DUR,MR-O,58.1,59,,,2001,140,147.5,152.5,152.5,82.5,87.5,92.5,92.5,175,185,-195,185,430,SBD,4,Raw,M,,
Chung Ho Chow,LSE,MR-O,57.85,59,,,2001,122.5,127.5,130,130,97.5,105,-107.5,105,192.5,-200,-200,192.5,427.5,SBD,5,Raw,M,,
Matt Chan,EXR,MR-O,55.15,59,,,2000,145,150,152.5,152.5,77.5,82.5,85,85,170,180,185,185,422.5,SBD,6,Raw,M,,
Callum Robertson,LBORO,MR-O,57.2,59,,,1998,120,122.5,127.5,127.5,87.5,92.5,-95,92.5,170,-180,-180,170,390,SBD,7,Raw,M,,
Jerry George,BIRM,MR-O,64.9,66,,,2000,170,180,190,190,125,130,135,135,210,220,-230,220,545,SBD,1,Raw,M,,
Calum Glendinning,NEW,MR-O,63.55,66,,,2001,165,177.5,185,185,80,87.5,90,90,220,235,240,240,515,SBD,2,Raw,M,,
Anthony Moszuti,UCL,MR-O,64.9,66,,,2001,182.5,-192.5,192.5,192.5,97.5,102.5,105,105,207.5,217.5,-227.5,217.5,515,SBD,3,Raw,M,,
Patrick Obcena,LBORO,MR-O,64.25,66,,,2003,160,-170,170,170,122.5,127.5,-130,127.5,205,-215,-215,205,502.5,SBD,4,Raw,M,,
Martin Nguyen #3,BRIST,MR-O,64.7,66,,,2001,162.5,-172.5,-172.5,162.5,-132.5,137.5,-140.5,137.5,180,195,202.5,202.5,502.5,SBD,5,Raw,M,,
Jai Hindocha,ICL,MR-O,64.9,66,,,2002,150,-165,-175,150,117.5,127.5,132.5,132.5,180,195,207.5,207.5,490,SBD,6,Raw,M,,
John Anderson #3,DUR,MR-O,63.5,66,,,2002,-170,170,180,180,100,107.5,-110,107.5,175,182.5,-190,182.5,470,SBD,7,Raw,M,,
Will Horsley,EXR,MR-O,65.6,66,,,1998,147.5,155,-162.5,155,112.5,117.5,122.5,122.5,167.5,175,185,185,462.5,SBD,8,Raw,M,,
Grant Young,BRIST,MR-O,63.4,66,,,2001,132.5,140,-145,140,95,100,-105,100,180,190,200,200,440,SBD,9,Raw,M,,
Justin Lam,UEA,MR-O,65.95,66,,,2002,132.5,140,145,145,85,90,92.5,92.5,185,192.5,-200,192.5,430,SBD,10,Raw,M,,
Farhan Hussain,UCL,MR-O,62.95,66,,,2002,142.5,152.5,157.5,157.5,80,85,-87.5,85,162.5,175,185,185,427.5,SBD,11,Raw,M,,
Nour El Eid,UCL,MR-O,65.65,66,,,2003,140,147.5,152.5,152.5,87.5,95,-100,95,160,170,175,175,422.5,SBD,12,Raw,M,,
Max Guo,LEEDS,MR-O,74,74,,,,205,215,-225,215,150,155,160,160,230,245,-250,245,620,SBD,1,Raw,M,,
Brandon Teh,CAM,MR-O,69.5,74,,,,200,212.5,220,220,135,140,145,145,217.5,230,242.5,242.5,607.5,SBD,2,Raw,M,,
Lucas Silva #1,BOURN,MR-O,72.7,74,,,,210,217.5,225,225,137.5,142.5,-147.5,142.5,232.5,240,-245,240,607.5,SBD,3,Raw,M,,
Raghul Parthipan,CAM,MR-O,73.5,74,,,,212.5,-225,225,225,132.5,137.5,140,140,225,240,-245,240,605,SBD,4,Raw,M,,
Anthony Fantozzi,NEW,MR-O,73.4,74,,,,205,220,225,225,115,122.5,127.5,127.5,230,-242.5,245,245,597.5,SBD,5,Raw,M,,
James Barker,LANC,MR-O,72.5,74,,,,190,200,202.5,202.5,140,147.5,152.5,152.5,-235,-235,235,235,590,SBD,6,Raw,M,,
Adam Essex,LBORO,MR-O,72.7,74,,,,182.5,192.5,197.5,197.5,140,147.5,152.5,152.5,212.5,227.5,232.5,232.5,582.5,SBD,7,Raw,M,,
Joseph Kelsey,NEW,MR-O,73.9,74,,,,190,200,205,205,132.5,140,-145,140,210,225,230,230,575,SBD,8,Raw,M,,
Joshua Darne,OXF,MR-O,73.1,74,,,,190,202.5,210,210,125,132.5,140,140,210,220,-222.5,220,570,SBD,9,Raw,M,,
Ping Hao Ng,EXR,MR-O,72.6,74,,,,195,210,-215,210,110,115,-120,115,227.5,237.5,,237.5,562.5,SBD,10,Raw,M,,
Tyler Thompson,EXR,MR-O,73.7,74,,,,175,180,185,185,132.5,140,142.5,142.5,217.5,227.5,-235,227.5,555,SBD,11,Raw,M,,
Brendan T Wei,UCL,MR-O,73.3,74,,,,175,180,187.5,187.5,132.5,140,-147.5,140,225,-235,-235,225,552.5,SBD,12,Raw,M,,
Oscar Birch,LEEDS,MR-O,72.5,74,,,,175,190,200,200,115,122.5,127.5,127.5,-200,210,222.5,222.5,550,SBD,13,Raw,M,,
George Gammage,LBORO,MR-O,73.3,74,,,,190,205,210,210,100,-110,110,110,210,225,-230,225,545,SBD,14,Raw,M,,
Nathan McDowell,SHEFF,MR-O,72.4,74,,,,200,-207.5,207.5,207.5,115,117.5,-122.5,117.5,200,210,217.5,217.5,542.5,SBD,15,Raw,M,,
Matt Botham,EXR,MR-O,70.25,74,,,2000,-190,190,200,200,112.5,117.5,-122.5,117.5,210,220,-230,220,537.5,SBD,16,Raw,M,,
Michael Chambers,BIRM,MR-O,73.3,74,,,,190,195,-200,195,130,135,-140,135,195,205,-210,205,535,SBD,17,Raw,M,,
Charlie Thomas #1,???,MR-O,74,74,,,,180,-195,195,195,105,110,115,115,215,225,-235,225,535,SBD,18,Raw,M,1999-03-04,
Kai Ho Chan,BATH,MR-O,69.7,74,,,,160,172.5,182.5,182.5,125,-132.5,132.5,132.5,190,200,215,215,530,SBD,19,Raw,M,,
Finn Cook,BIRM,MR-O,73.2,74,,,,162.5,172.5,180,180,127.5,135,-140,135,195,207.5,212.5,212.5,527.5,SBD,20,Raw,M,,
Chanin Bulakul,BATH,MR-O,73.35,74,,,2003,170,-182.5,182.5,182.5,107.5,117.5,122.5,122.5,200,217.5,-225,217.5,522.5,SBD,21,Raw,M,,
Daniel Lillis,EXR,MR-O,73.5,74,,,,160,172.5,-180,172.5,115,122.5,-127.5,122.5,205,215,225,225,520,SBD,22,Raw,M,,
Muhammad Choudhry,ICL,MR-O,73.9,74,,,,180,-185,-185,180,105,107.5,-110,107.5,220,230,-240,230,517.5,SBD,23,Raw,M,2000-10-23,
Yunus Ali,UCL,MR-O,73.5,74,,,,150,157.5,162.5,162.5,100,107.5,-112.5,107.5,225,240,245,245,515,SBD,24,Raw,M,,
Evan Daniels,TRENT,MR-O,73.25,74,,,2000,-180,180,187.5,187.5,90,95,97.5,97.5,210,220,227.5,227.5,512.5,SBD,25,Raw,M,,
Declan Taylor,LBORO,MR-O,70.2,74,,,1999,175,187.5,200,200,102.5,-107.5,107.5,107.5,182.5,200,-207.5,200,507.5,SBD,26,Raw,M,,
Sam Whale,PORT,MR-O,72.4,74,,,,145,150,-160,150,125,132.5,-140,132.5,210,-225,225,225,507.5,SBD,27,Raw,M,,
Ethan Ruskin,EXR,MR-O,72.75,74,,,2001,160,172.5,177.5,177.5,117.5,125,130,130,182.5,197.5,200,200,507.5,SBD,28,Raw,M,,
Samuel Syson,LBORO,MR-O,72.7,74,,,2000,165,-172.5,172.5,172.5,-125,125,130,130,185,195,-202.5,195,497.5,SBD,29,Raw,M,,
Daniel Chen,UCL,MR-O,70.95,74,,,2001,157.5,170,-177.5,170,120,125,130,130,-180,192.5,-200,192.5,492.5,SBD,30,Raw,M,,
George Wright,LEEDS,MR-O,72.8,74,,,1999,162.5,172.5,177.5,177.5,107.5,115,-120,115,190,200,-210,200,492.5,SBD,31,Raw,M,,
Alex Tamlyn,EXR,MR-O,71.75,74,,,2000,160,-170,170,170,102.5,110,-112.5,110,187.5,202.5,210,210,490,SBD,32,Raw,M,,
Mushfiqur Rahman,ICL,MR-O,70.4,74,,,1999,165,-170,170,170,122.5,-127.5,127.5,127.5,180,185,190,190,487.5,SBD,33,Raw,M,,
Rio Carasco,LEEDS,MR-O,72.3,74,,,2001,150,160,170,170,107.5,112.5,-117.5,112.5,185,200,205,205,487.5,SBD,34,Raw,M,,
Thomas Heron,NOTT,MR-O,72.6,74,,,2001,155,165,175,175,92.5,97.5,102.5,102.5,190,200,210,210,487.5,SBD,35,Raw,M,,
David Peters,BOURN,MR-O,72.7,74,,,1998,155,165,175,175,97.5,105,110,110,185,200,-215,200,485,SBD,36,Raw,M,,
Mason Mui,WARK,MR-O,72.65,74,,,2004,162.5,-172.5,177.5,177.5,-85,90,-95,90,190,200,210,210,477.5,SBD,37,Raw,M,,
Aaron Ghataure,LSE,MR-O,71.4,74,,,2001,-165,165,172.5,172.5,90,97.5,-102.5,97.5,185,195,205,205,475,SBD,38,Raw,M,,
Alex Tan,DUR,MR-O,69.75,74,,,2002,145,-155,-155,145,97.5,105,-107.5,105,195,215,222.5,222.5,472.5,SBD,39,Raw,M,,
George Whitehouse,BIRM,MR-O,72.65,74,,,2001,140,-150,150,150,107.5,-112.5,-112.5,107.5,210,-220,-220,210,467.5,SBD,40,Raw,M,,
Ethan Beckford,NOTT,MR-O,72.65,74,,,2001,147.5,155,160,160,100,-105,105,105,180,190,200,200,465,SBD,41,Raw,M,,
James Hopgood,LANC,MR-O,71.9,74,,,2002,150,-157.5,157.5,157.5,95,100,105,105,175,190,192.5,192.5,455,SBD,42,Raw,M,,
Swopil Gurung,UCL,MR-O,72.85,74,,,1997,127.5,137.5,145,145,95,-102.5,-105,95,-180,187.5,197.5,197.5,437.5,SBD,43,Raw,M,,
Peter Jessop,KENT,MR-O,73.05,74,,,2001,152.5,162.5,167.5,167.5,-82.5,85,-90,85,170,-180,-180,170,422.5,SBD,44,Raw,M,,
Lukas Amosovas,PORT,MR-O,73.25,74,,,1999,150,165,170,170,-105,-115,-115,,185,205,-210,205,,SBD,DQ,Raw,M,,
Hamza Bham,WARK,MR-O,82,83,,,,227.5,-242.5,242.5,242.5,160,165,170,170,262.5,280,292.5,292.5,705,SBD,1,Raw,M,,
Joey Awala,UEA,MR-O,81.6,83,,,,222.5,235,245,245,137.5,145,150,150,270,292.5,-310,292.5,687.5,SBD,2,Raw,M,,
Joseph Tang,UCLAN,MR-O,82.1,83,,,,-210,210,217.5,217.5,157.5,165,167.5,167.5,262.5,280,-287.5,280,665,SBD,3,Raw,M,,
Harrison Sparks,LBORO,MR-O,81.8,83,,,,222.5,230,235,235,185.5,193,-200,193,235,-245,-245,235,663,SBD,4,Raw,M,,
Alex Hiew,WARK,MR-O,82.8,83,,,,215,230,235,235,137.5,145,-150,145,265,282.5,-287.5,282.5,662.5,SBD,5,Raw,M,,
Jonathan Blackhurst,LPOOL,MR-O,81.6,83,,,,225,-232.5,232.5,232.5,145,152.5,-160,152.5,275,-285,-287.5,275,660,SBD,6,Raw,M,,
Sean Issomura Gillard,UCL,MR-O,82.3,83,,,,210,220,-227.5,220,160,-167.5,-167.5,160,-265,275,-285,275,655,SBD,7,Raw,M,,
Hani Tabbara,BIRM,MR-O,82.3,83,,,,205,215,225,225,127.5,132.5,-137.5,132.5,260,275,-290,275,632.5,SBD,8,Raw,M,,
Ryle Bumagat,SURR,MR-O,81.4,83,,,,200,215,225,225,130,135,140,140,265,-280,-282.5,265,630,SBD,9,Raw,M,,
James Ainley,BIRM,MR-O,82.2,83,,,,202.5,210,217.5,217.5,142.5,147.5,155,155,235,247.5,252.5,252.5,625,SBD,10,Raw,M,,
Harry Cookson,CAM,MR-O,83,83,,,,180,195,205,205,130,140,150,150,220,240,260,260,615,SBD,11,Raw,M,,
Alex Constantine,LBORO,MR-O,82.6,83,,,,212.5,-220,-220,212.5,140,147.5,-152.5,147.5,242.5,250,-255,250,610,SBD,12,Raw,M,,
Josh Hinchcliffe,NEW,MR-O,82,83,,,,202.5,212.5,-220,212.5,130,137.5,142.5,142.5,240,252.5,-262.5,252.5,607.5,SBD,13,Raw,M,,
Harry Latos,LBORO,MR-O,82.1,83,,,,195,207.5,-217.5,207.5,142.5,152.5,-157.5,152.5,230,242.5,247.5,247.5,607.5,SBD,14,Raw,M,,
Duncan Law,OXF,MR-O,81.6,83,,,,205,-215,220,220,142.5,150,155,155,230,-242.5,-245,230,605,SBD,15,Raw,M,,
Dylan Affum,OXF,MR-O,81.8,83,,,,182.5,192.5,200,200,127.5,135,140,140,235,250,260,260,600,SBD,16,Raw,M,,
Matt Burson,EXR,MR-O,81,83,,,,190,197.5,207.5,207.5,127.5,135,140,140,215,235,242.5,242.5,590,SBD,17,Raw,M,,
Cameron Gafaar,LEEDS,MR-O,81.7,83,,,,190,205,215,215,120,135,145,145,205,225,-240,225,585,SBD,18,Raw,M,,
Junior Oby Obi,UEL,MR-O,81.9,83,,,,-197.5,197.5,-205,197.5,137.5,145,-150,145,242.5,-255,-255,242.5,585,SBD,19,Raw,M,,
Vinnie Murphy,BATH,MR-O,81.1,83,,,,187.5,197.5,207.5,207.5,127.5,132.5,-137.5,132.5,215,227.5,237.5,237.5,577.5,SBD,20,Raw,M,,
Chomba Mumba,LBORO,MR-O,80.4,83,,,,180,190,195,195,132.5,-140,-140,132.5,235,247.5,-260,247.5,575,SBD,21,Raw,M,,
Nathan Chawner-Wright,DER,MR-O,79.5,83,,,2000,200,205,-210,205,140,145,147.5,147.5,200,215,220,220,572.5,SBD,22,Raw,M,,
Joshua He Yeung,UCL,MR-O,82.5,83,,,,192.5,202.5,-210,202.5,140,147.5,-152.5,147.5,200,210,220,220,570,SBD,23,Raw,M,,
Mathew Smith,EXR,MR-O,82,83,,,,197.5,205,210,210,120,122.5,125,125,220,230,-235,230,565,SBD,24,Raw,M,,
Toby Gibson,BATH,MR-O,80.3,83,,,2000,195,205,212.5,212.5,127.5,132.5,-135,132.5,200,210,217.5,217.5,562.5,SBD,25,Raw,M,,
Jonathan Klein,BIRM,MR-O,80.55,83,,,2001,190,200,207.5,207.5,-120,120,122.5,122.5,220,232.5,-242.5,232.5,562.5,SBD,26,Raw,M,,
Joao Pedro Freitas,SURR,MR-O,80.3,83,,,,207.5,220,-232.5,220,120,,,120,220,-240,-255,220,560,SBD,27,Raw,M,,
Harry French,EXR,MR-O,80.5,83,,,,-172.5,-172.5,172.5,172.5,117.5,125,130,130,225,242.5,255,255,557.5,SBD,28,Raw,M,,
Luke Easton,LEEDS,MR-O,81.1,83,,,1999,182.5,192.5,200,200,115,-120,120,120,210,225,235,235,555,SBD,29,Raw,M,,
Henry Cheung,TRENT,MR-O,81.05,83,,,2002,160,170,-180,170,130,135,140,140,230,240,-250,240,550,SBD,30,Raw,M,,
Sam Taylor #6,DEM,MR-O,78.25,83,,,2002,170,177.5,185,185,115,122.5,-127.5,122.5,215,227.5,240,240,547.5,SBD,31,Raw,M,,
Thomas Huggins,NOTT,MR-O,82.8,83,,,,182.5,192.5,-200,192.5,110,117.5,120,120,220,230,235,235,547.5,SBD,32,Raw,M,,
Naeemur Rahman,NOTT,MR-O,79.05,83,,,1998,187.5,197.5,205,205,105,110,-115,110,205,220,230,230,545,SBD,33,Raw,M,,
JJ Daley,NOTT,MR-O,80.3,83,,,2000,-175,175,185,185,125,-130,130,130,230,-240,-240,230,545,SBD,34,Raw,M,,
Josef Parr,LEEDS,MR-O,81,83,,,1999,180,192.5,200,200,110,115,120,120,200,215,225,225,545,SBD,35,Raw,M,,
Cameron Huke,NOTT,MR-O,81.5,83,NM,England,1995,200,210,-215,210,102.5,105,107.5,107.5,210,217.5,222.5,222.5,540,SBD,36,Raw,M,,
Sam Dunham,MMU,MR-O,81.4,83,,,2002,175,185,190,190,-117.5,122.5,127.5,127.5,205,215,220,220,537.5,SBD,37,Raw,M,,
Liam Parnis,WARK,MR-O,82.1,83,,,,182.5,195,-205,195,120,127.5,135,135,192.5,207.5,-217.5,207.5,537.5,SBD,38,Raw,M,,
Ryan Adams,DUR,MR-O,80,83,,,2001,175,180,-182.5,180,125,132.5,-135,132.5,195,210,220,220,532.5,SBD,39,Raw,M,,
Antione Me'tios,EXR,MR-O,79.45,83,,,2000,185,190,-200,190,130,137.5,-140,137.5,190,200,-210,200,527.5,SBD,40,Raw,M,,
Patrick O'Reilly,SWAN,MR-O,79.7,83,,,1998,190,-200,-200,190,120,122.5,-125,122.5,200,207.5,215,215,527.5,SBD,41,Raw,M,,
Matthew Westcott,SWAN,MR-O,81.6,83,,,1999,192.5,-200,-200,192.5,102.5,107.5,-110,107.5,212.5,225,-230,225,525,SBD,42,Raw,M,,
Thomas Higgins,LANC,MR-O,81.9,83,,,,182.5,192.5,197.5,197.5,105,-110,-110,105,207.5,217.5,-227.5,217.5,520,SBD,43,Raw,M,,
Yusuf Ben-Tarifite,OXF,MR-O,79.25,83,,,1999,-180,180,187.5,187.5,107.5,112.5,-115,112.5,200,215,-225,215,515,SBD,44,Raw,M,,
Matthew Severn,NOTT,MR-O,80.2,83,,,2000,185,195,-197.5,195,117.5,-120,120,120,180,190,200,200,515,SBD,45,Raw,M,,
Kristian Skailand,BRIST,MR-O,79.75,83,,,2000,162.5,172.5,180,180,-105,-105,107.5,107.5,205,215,225,225,512.5,SBD,46,Raw,M,,
Mantas Zalpys,LINC,MR-O,81.25,83,,,1998,-170,170,172.5,172.5,130,140,-150,140,190,200,-210,200,512.5,SBD,47,Raw,M,,
Charlie Cambridge,CAM,MR-O,81.6,83,,,2002,162.5,170,175,175,107.5,112.5,-115,112.5,205,217.5,225,225,512.5,SBD,48,Raw,M,,
Harris Tunka Han,NEW,MR-O,82,83,,,2003,162.5,-170,170,170,92.5,97.5,100,100,220,230,240,240,510,SBD,49,Raw,M,,
Bartosz Miroslaw,NOTT,MR-O,82.1,83,,,2000,150,160,170,170,120,127.5,-135,127.5,190,200,210,210,507.5,SBD,50,Raw,M,,
Benji Gill,NOTT,MR-O,80.9,83,,,2001,-172.5,172.5,182.5,182.5,107.5,112.5,117.5,117.5,180,190,200,200,500,SBD,51,Raw,M,,
Sameer Barakat,ICL,MR-O,81.95,83,,,2000,150,162.5,172.5,172.5,102.5,112.5,-120,112.5,190,202.5,212.5,212.5,497.5,SBD,52,Raw,M,,
Henry Nicholson,LEEDS,MR-O,81.2,83,,,2000,165,170,-175,170,110,-115,-117.5,110,185,192.5,200,200,480,SBD,53,Raw,M,,
Thomas Griffiths,SURR,MR-O,81.1,83,,,2000,75,,,75,142.5,147.5,152.5,152.5,170,200,-222.5,200,427.5,SBD,54,Raw,M,,
Kian Doyle,LBORO,MR-O,82.1,83,,,,197.5,-205,-205,197.5,145,150,-155,150,-242.5,-242.5,-242.5,,,SBD,DQ,Raw,M,,19
Adedapo Ojewale,BRUN,MR-O,91.6,93,,,,270,280,-285,280,160,165,,165,325,345,-360.5,345,790,SBD,1,Raw,M,,
Nathaniel Massiah,LBORO,MR-O,91.4,93,,,,245,260,270,270,-145,155,-160,155,290,305,-315,305,730,SBD,2,Raw,M,,
Cyrus Khine,NOTT,MR-O,91.7,93,,,,255,272.5,280.5,280.5,130,140,147.5,147.5,270,290,-302.5,290,718,SBD,3,Raw,M,,
Michael Ampofo,LEST,MR-O,91.1,93,,,,215,225,235,235,170,-177.5,177.5,177.5,270,280,290,290,702.5,SBD,4,Raw,M,,
Oliver Pickwell,NBIA,MR-O,92.5,93,,,,235,245,252.5,252.5,152.5,160,162.5,162.5,280,-300,-305,280,695,SBD,5,Raw,M,,
Michael Hezekiah,ICL,MR-O,92,93,,,,-215,220,-235,220,165,175,-180,175,270,285,295,295,690,SBD,6,Raw,M,,
Joseph Moore,NOTT,MR-O,92.3,93,,,,215,230,235,235,150,157.5,162.5,162.5,270,290,-302.5,290,687.5,SBD,7,Raw,M,,
Matthew Bingham,TRENT,MR-O,92.4,93,,,,225,237.5,247.5,247.5,152.5,160,165,165,240,257.5,267.5,267.5,680,SBD,8,Raw,M,,
Nicholas Hwong,UCL,MR-O,92.4,93,,,,227.5,240,245,245,145,155,160,160,250,265,272.5,272.5,677.5,SBD,9,Raw,M,,
Samuel Cook #1,DUR,MR-O,90.8,93,,,,240,247.5,252.5,252.5,132.5,137.5,-140,137.5,285,-300,-300,285,675,SBD,10,Raw,M,,
Carlo Zanetti,BATH,MR-O,90.6,93,,,,212.5,225,235,235,145,-152.5,155,155,265,280,-290,280,670,SBD,11,Raw,M,,
Jack Taylor #7,LBORO,MR-O,92.4,93,,,,192.5,200,207.5,207.5,202.5,210,216,216,210,220,227.5,227.5,651,SBD,12,Raw,M,,
Caleb Ellis,DUR,MR-O,90.5,93,,,,230,242.5,-247.5,242.5,122.5,127.5,132.5,132.5,245,265,275,275,650,SBD,13,Raw,M,,
Samuel Beddoes,ESS,MR-O,88.8,93,,,,222.5,232.5,-242.5,232.5,130,137.5,145,145,252.5,267.5,-282.5,267.5,645,SBD,14,Raw,M,,
Stephanos Karidis,SURR,MR-O,91.8,93,,,,212.5,222.5,230,230,125,130,135,135,240,265,280,280,645,SBD,15,Raw,M,,
Gabriel Rowland,LEEDS,MR-O,92.9,93,,,,205,215,222.5,222.5,147.5,152.5,157.5,157.5,240,255,265,265,645,SBD,16,Raw,M,,
Joshua Hudnott,EXR,MR-O,91.8,93,,,,210,220,230,230,115,125,132.5,132.5,242.5,257.5,272.5,272.5,635,SBD,17,Raw,M,,
Asish Biju,LEEDS,MR-O,92.6,93,,,,215,225,235,235,145,152.5,-157.5,152.5,-245,245,-252.5,245,632.5,SBD,18,Raw,M,,
Julius Hobbs,STMS,MR-O,92.7,93,,,,225,235,240,240,127.5,132.5,-137.5,132.5,240,250,257.5,257.5,630,SBD,19,Raw,M,,
Jonathan Forsythe,WARK,MR-O,90.9,93,,,,215,230,240,240,135,145,-150,145,220,237.5,-245,237.5,622.5,SBD,20,Raw,M,,
Jasper Campbell-Crocker,PLY,MR-O,92,93,,,,195,205,210,210,132.5,140,145,145,-250,265,-272.5,265,620,SBD,21,Raw,M,,
Miguel Ohnesorge,CAM,MR-O,90.6,93,,,,197.5,207.5,217.5,217.5,137.5,145,152.5,152.5,220,232.5,245,245,615,SBD,22,Raw,M,,
Daniel Jackman,SHEFF,MR-O,88.6,93,,,2000,187.5,200,210,210,135,142.5,147.5,147.5,225,245,255,255,612.5,SBD,23,Raw,M,,
Dominic J King,NOTT,MR-O,90.55,93,,,2000,215,225,232.5,232.5,125,132.5,137.5,137.5,230,240,-250,240,610,SBD,24,Raw,M,,
Nathaniel Woodbridge,BIRM,MR-O,90.35,93,,,2002,205,215,225,225,127.5,135,-140,135,222.5,237.5,247.5,247.5,607.5,SBD,25,Raw,M,,
Sebastian Cornwell,CAM,MR-O,87.7,93,,,,200,210,217.5,217.5,135,142.5,150,150,227.5,237.5,-250,237.5,605,SBD,26,Raw,M,,
Ignacio Sparrow,ICL,MR-O,90.4,93,,,,195,210,215,215,120,125,130,130,245,260,-272.5,260,605,SBD,27,Raw,M,,
Mustafa John Altintas,ICL,MR-O,91.2,93,,,,230,240,-245,240,140,145,-150,145,205,215,220,220,605,SBD,28,Raw,M,,
Cliff Pagani,EXR,MR-O,91.8,93,,,,205,215,220,220,122.5,127.5,-130,127.5,225,240,252.5,252.5,600,SBD,29,Raw,M,,
Asiece Lalli,NEW,MR-O,91.3,93,,,,205,217.5,232.5,232.5,105,112.5,117.5,117.5,-237.5,-237.5,247.5,247.5,597.5,SBD,30,Raw,M,,
George Hazeldine,CDRF,MR-O,88.7,93,,,2001,-182.5,190,200,200,117.5,125,132.5,132.5,230,247.5,260,260,592.5,SBD,31,Raw,M,,
Ralph Davies,DUR,MR-O,86.5,93,,,,200,210,-215,210,125,130,-135,130,-250,250,-252.5,250,590,SBD,32,Raw,M,,
Isaak Nathan,STMT,MR-O,87.6,93,,,,215,225,232.5,232.5,115,122.5,-127.5,122.5,220,235,-245,235,590,SBD,33,Raw,M,,
William Lake #1,TRENT,MR-O,92.4,93,,,,215,225,232.5,232.5,90,,,90,-240,250,265,265,587.5,SBD,34,Raw,M,,
Josh Browne,STMS,MR-O,84.25,93,,,2000,200,,,200,120,130,-140,130,230,240,250,250,580,SBD,35,Raw,M,,
David Coope,OXF,MR-O,86.3,93,,,,180,190,200,200,122.5,130,135,135,225,-240,245,245,580,SBD,36,Raw,M,,
Marcus Tam,UCL,MR-O,86.45,93,,,2001,190,200,205,205,122.5,130,-135,130,222.5,232.5,240,240,575,SBD,37,Raw,M,,
Edward Macintyre,BATH,MR-O,92.2,93,,,2000,195,205,215,215,97.5,105,110,110,220,235,250,250,575,SBD,38,Raw,M,,
Monty Horton-Szar,LBORO,MR-O,90.3,93,,,2003,-195,195,210,210,125,130,132.5,132.5,220,225,230,230,572.5,SBD,39,Raw,M,,
Andrew Platt #1,OXF,MR-O,85.3,93,,,,185,195,-202.5,195,112.5,120,125,125,230,242.5,250,250,570,SBD,40,Raw,M,,
Damilare Williams,SURR,MR-O,91.15,93,,,2000,180,190,200,200,117.5,125,130,130,215,230,240,240,570,SBD,41,Raw,M,,
Shyam Popat,OXF,MR-O,86.75,93,,,1997,185,195,202.5,202.5,127.5,135,137.5,137.5,212.5,227.5,-240,227.5,567.5,SBD,42,Raw,M,,
Joe Hirst,TRENT,MR-O,91.5,93,,,2002,190,200,210,210,132.5,137.5,145,145,200,212.5,-225,212.5,567.5,SBD,43,Raw,M,,
Tom Greaney,AECC,MR-O,89.5,93,,,2000,192.5,200,-207.5,200,105,112.5,115,115,220,235,250,250,565,SBD,44,Raw,M,,
Ilia Krastev,TRENT,MR-O,87.9,93,,,2001,-190,190,205,205,112.5,-120,122.5,122.5,202.5,215,230,230,557.5,SBD,45,Raw,M,,
Haydn O'Neill,NOTT,MR-O,87.85,93,,,2001,190,200,210,210,102.5,110,115,115,215,230,-240,230,555,SBD,46,Raw,M,,
Aubtin Yazdiha,LBORO,MR-O,89,93,,,2003,-200,205,-210,205,-120,120,-127.5,120,200,210,225,225,550,SBD,47,Raw,M,,
Michael Wong,BATH,MR-O,86.85,93,,,2001,185,195,200,200,115,120,125,125,190,205,220,220,545,SBD,48,Raw,M,,
Cole Edwards #4,WORS,MR-O,90.55,93,,,2000,175,190,200,200,-112.5,120,-125,120,195,212.5,225,225,545,SBD,49,Raw,M,,
Ethan McDerment,NOTT,MR-O,91,93,,,2003,162.5,-172.5,172.5,172.5,115,120,-122.5,120,230,242.5,252.5,252.5,545,SBD,50,Raw,M,,
Jonathan Corrigan,LEEDS,MR-O,93,93,,,2003,165,175,185,185,115,122.5,127.5,127.5,205,217.5,230,230,542.5,SBD,51,Raw,M,,
Lawrie Williams,SURR,MR-O,90,93,,,1999,162.5,172.5,-180,172.5,110,117.5,-125,117.5,215,230,250,250,540,SBD,52,Raw,M,,
Harry Greaney,SWAN,MR-O,90.45,93,,,2000,190,200,205,205,105,107.5,-110,107.5,215,227.5,-230,227.5,540,SBD,53,Raw,M,,
Patryk Swidnik,NOTT,MR-O,89.25,93,,,,175,185,190,190,120,127.5,132.5,132.5,190,202.5,215,215,537.5,SBD,54,Raw,M,,
Jack Harrap,WARK,MR-O,91,93,,,2000,157.5,167.5,175,175,102.5,107.5,112.5,112.5,217.5,232.5,247.5,247.5,535,SBD,55,Raw,M,,
Tom Xavier Smith,NOTT,MR-O,91.5,93,,,2000,172.5,182.5,190,190,97.5,105,112.5,112.5,200,215,227.5,227.5,530,SBD,56,Raw,M,,
Angus Gardner,WARK,MR-O,88.35,93,,,2000,177.5,190,-200,190,120,127.5,130,130,185,200,-207.5,200,520,SBD,57,Raw,M,,
Jack Hopkins,BATH,MR-O,91.4,93,,,,257.5,270,-277.5,270,172.5,180,-185,180,-295,-295,-295,,,SBD,DQ,Raw,M,,
Michael Pierides,LAW,MR-O,104.4,105,,,,260,275,287.5,287.5,172.5,180,187.5,187.5,267.5,285,300,300,775,SBD,1,Raw,M,,
Charlie Kidd,OXF,MR-O,103.7,105,,,,260,275,282.5,282.5,140,152.5,157.5,157.5,270,285,290,290,730,SBD,2,Raw,M,,
Thomas Kenchington,LEEDS,MR-O,102.45,105,,,,240,255,260,260,155,165,-170,165,255,270,287.5,287.5,712.5,SBD,3,Raw,M,,
Liam Collins #2,YORK,MR-O,103.05,105,,,,240,257.5,265,265,150,157.5,162.5,162.5,260,275,285,285,712.5,SBD,4,Raw,M,,
Noah Miles,LBORO,MR-O,103.2,105,,,,240,-250,250,250,145,150,155,155,270,285,295,295,700,SBD,5,Raw,M,,
Anthony Vella,KCL,MR-O,100.35,105,,,,225,-242.5,242.5,242.5,160,167.5,-170,167.5,260,275,285,285,695,SBD,6,Raw,M,,
Gabriel Balandis,DEM,MR-O,103.5,105,,,,220,235,-245,235,155,160,165,165,260,280,-300,280,680,SBD,7,Raw,M,,
Harry Constantine,NEW,MR-O,104.5,105,,,,240,-255,255,255,125,135,142.5,142.5,245,260,270,270,667.5,SBD,8,Raw,M,,
Dylan Smith #17,YORK,MR-O,103.55,105,,,,225,237.5,-242.5,237.5,155,162.5,170,170,245,257.5,-267.5,257.5,665,SBD,9,Raw,M,,
Ben Rhodes,LINC,MR-O,99.05,105,,,,210,225,232.5,232.5,150,160,-162.5,160,245,257.5,-270,257.5,650,SBD,10,Raw,M,,
Daniel Tucci,LBORO,MR-O,98.95,105,,,,210,220,227.5,227.5,-135,137.5,142.5,142.5,250,-265,275,275,645,SBD,11,Raw,M,,
Petr Stefan,PLYM,MR-O,103.3,105,,,,210,235,-245,235,135,145,150,150,220,245,260,260,645,SBD,12,Raw,M,,
Finn Wood,NOTT,MR-O,104.25,105,,,,220,230,240,240,135,142.5,-150,142.5,235,247.5,260,260,642.5,SBD,13,Raw,M,2000-10-02,
Giotto McCourt,LBORO,MR-O,102.7,105,,,,220,227.5,232.5,232.5,130,-137.5,137.5,137.5,235,247.5,260,260,630,SBD,14,Raw,M,,
Jamie Jonathan Foord,TRENT,MR-O,98.15,105,,,,210,225,-232.5,225,135,140,-145,140,245,260,-275,260,625,SBD,15,Raw,M,,
Eliot Snowdon,LANC,MR-O,101.55,105,,,,210,222.5,-230,222.5,-150,-150,150,150,235,247.5,-255,247.5,620,SBD,16,Raw,M,,
George Nash,SOTON,MR-O,103.05,105,,,,220,222.5,240,240,125,130,-135,130,250,-260,-260,250,620,SBD,17,Raw,M,,
Tomiwo Owoseje,UCL,MR-O,101.8,105,,,,195,205,210,210,140,147.5,155,155,225,235,245,245,610,SBD,18,Raw,M,,
Cameron Little,NOTT,MR-O,102.9,105,,,,200,210,215,215,137.5,145,150,150,230,242.5,-250,242.5,607.5,SBD,19,Raw,M,,
Jake Brinton,TRENT,MR-O,102.95,105,,,,200,215,222.5,222.5,-130,130,-142.5,130,230,245,255,255,607.5,SBD,20,Raw,M,,
Theodore Hall,OXF,MR-O,103.55,105,,,,210,220,-225,220,135,142.5,-147.5,142.5,225,240,-247.5,240,602.5,SBD,21,Raw,M,,
Elliot Vaughan,CAM,MR-O,96.55,105,,,,190,200,207.5,207.5,117.5,122.5,127.5,127.5,240,255,265,265,600,SBD,22,Raw,M,,
Josh Smith #36,SOL,MR-O,100.4,105,,,,210,212.5,217.5,217.5,140,147.5,-152.5,147.5,230,-240,-240,230,595,SBD,23,Raw,M,,
Conner Scarfe,LBORO,MR-O,96.35,105,,,,-210,-210,210,210,-117.5,125,127.5,127.5,220,240,255,255,592.5,SBD,24,Raw,M,,
Matthew Wratting,PORT,MR-O,96.75,105,,,,185,187.5,207.5,207.5,115,120,125,125,220,235,250,250,582.5,SBD,25,Raw,M,,
Nick Green,SURR,MR-O,93.3,105,,,,150,165,175,175,135,142.5,-147.5,142.5,215,225,235,235,552.5,SBD,26,Raw,M,,
Thomas Farley,STMT,MR-O,100,105,,,,205,212.5,217.5,217.5,125,130,,130,-240,-240,,,,SBD,DQ,Raw,M,,
William Flynn,LEEDS,MR-O,112.6,120,,,,270,286,300,300,160,165,170,170,280,295,310,310,780,SBD,1,Raw,M,,
Tom Hollway,NBIA,MR-O,117.55,120,,,,250,270,280,280,160,170,-175,170,-260,260,280,280,730,SBD,2,Raw,M,,
Dominic Schoen,LBORO,MR-O,118.05,120,,,,255,-262.5,-262.5,255,155,162.5,170,170,277.5,285,-290,285,710,SBD,3,Raw,M,,
Tomos Atkinson,ABER,MR-O,117.75,120,,,,220,-230,235,235,122.5,127.5,-132.5,127.5,240,260,-275,260,622.5,SBD,4,Raw,M,,
Josh Mason,SURR,MR-O,113.6,120,,,,75,,,75,137.5,145,-150,145,75,-77.5,,75,295,SBD,5,Raw,M,,
Cameron Stempt,SOTON,MR-O,131.9,120+,,,,225,235,242.5,242.5,155,165,-175,165,270,-282.5,282.5,282.5,690,SBD,1,Raw,M,,
