Place,Name,BirthDate,Sex,BirthYear,Age,Country,State,Equipment,Division,BodyweightKg,WeightClassKg,Squat1Kg,Squat2Kg,Squat3Kg,Best3SquatKg,Bench1Kg,Bench2Kg,Bench3Kg,Best3BenchKg,Deadlift1Kg,Deadlift2Kg,Deadlift3Kg,Best3DeadliftKg,TotalKg,Event
G,Eva Polini,,F,2007,15,,LA,Raw,FR-O,59.1,63,125,132.5,140,140,52.5,57.5,62.5,62.5,115,122.5,-132.5,122.5,325,SBD
G,Carla Cohen,,F,1946,76,,NY,Raw,FR-O,46.85,47,25,27.5,,27.5,25,,,25,45,,,45,97.5,SBD
1,Emily Manire,,F,2001,20,,TX,Raw,FR-Jr,51.9,52,92.5,-105,105,105,52.5,57.5,-60,57.5,127.5,137.5,-145,137.5,300,SBD
1,Karen Nguyen,,F,2000,21,,TX,Raw,FR-Jr,55.6,57,85,95,100,100,-52.5,52.5,57.5,57.5,117.5,125,127.5,127.5,285,SBD
1,Sofia Ayala,,F,2003,18,,TX,Raw,FR-Jr,62.75,63,137.5,147.5,-155,147.5,55,62.5,-67.5,62.5,152.5,177.5,-192.5,177.5,387.5,SBD
2,Anya Lawrence,,F,1999,22,,NM,Raw,FR-Jr,62.1,63,105,115,120,120,50,-62.5,62.5,62.5,110,132.5,140,140,322.5,SBD
DQ,Caitlin Ludford,,F,2002,20,,MA,Raw,FR-Jr,62.25,63,-137.5,-137.5,-137.5,,65,72.5,77.5,77.5,122.5,130,-135,130,,SBD
1,Carolyn Connor,,F,2003,19,,PA,Raw,FR-Jr,68.67,69,135,142.5,148,148,67.5,72.5,77.5,77.5,137.5,147.5,155,155,380.5,SBD
2,Taylor Gagnon,,F,1999,23,,NH,Raw,FR-Jr,66.94,69,125,137.5,142.5,142.5,72.5,80,85,85,132.5,145,152.5,152.5,380,SBD
1,Jessica Kinney,,F,2000,22,,WI,Raw,FR-Jr,75.67,76,165,175,180,180,102.5,110,112.5,112.5,192.5,205,213,213,505.5,SBD
1,Antara Jackson,,F,2001,21,,NY,Raw,FR-Jr,83.11,84,-157.5,165,172.5,172.5,112.5,120,125,125,187.5,197.5,207.5,207.5,505,SBD
2,Hope Hunsberger,,F,1999,23,,PA,Raw,FR-Jr,82.84,84,180,187.5,192.5,192.5,100,105,-107.5,105,180,190,-197.5,190,487.5,SBD
1,Noelle Brigden,,F,1977,44,,WI,Raw,FR-M1,45.95,47,102.5,105,107.5,107.5,65,70.5,-73.5,70.5,127.5,130,132.5,132.5,310.5,SBD
1,Sarah Gravino,,F,1977,44,,NY,Raw,FR-M1,56.3,57,102.5,107.5,-110,107.5,65,67.5,-70,67.5,130,137.5,-145,137.5,312.5,SBD
2,Joyce Kuwae,,F,1977,44,,MD,Raw,FR-M1,56.65,57,82.5,87.5,90,90,45,47.5,-50,47.5,100,107.5,112.5,112.5,250,SBD
1,Jennifer Varano,,F,1981,40,,PA,Raw,FR-M1,61.15,63,112.5,120,125,125,77.5,82.5,-87.5,82.5,132.5,137.5,142.5,142.5,350,SBD
2,Shannell Traylor,,F,1982,39,,FL,Raw,FR-M1,61.85,63,107.5,112.5,117.5,117.5,60,65,-67.5,65,130,137.5,145,145,327.5,SBD
3,Tanya Vong,,F,1981,40,,NH,Raw,FR-M1,61.55,63,-120,-120,120,120,60,67.5,-70,67.5,125,137.5,-142.5,137.5,325,SBD
4,Faith Clough,,F,1982,40,,FL,Raw,FR-M1,60.1,63,95,100,107.5,107.5,60,67.5,-72.5,67.5,90,102.5,107.5,107.5,282.5,SBD
5,Nimisha Mitha,,F,1979,42,,FL,Raw,FR-M1,61.3,63,57.5,62.5,65,65,42.5,47.5,50,50,90,92.5,95,95,210,SBD
1,Melissa Schulte,,F,1976,46,,NJ,Raw,FR-M1,67.75,69,117.5,125,132.5,132.5,72.5,-77.5,77.5,77.5,132.5,142.5,150,150,360,SBD
2,Clair Crawford,,F,1979,42,,OH,Raw,FR-M1,67.85,69,95,100,102.5,102.5,52.5,55,-57.5,55,122.5,130,137.5,137.5,295,SBD
1,Joah Iannotta,,F,1973,49,,PA,Raw,FR-M1,75.69,76,120,130,-135,130,105,110,-112.5,110,165,175,-180,175,415,SBD
2,Courtney Costrino,,F,1981,41,,FL,Raw,FR-M1,75.27,76,125,130,-132.5,130,72.5,77.5,-82.5,77.5,140,150,-155,150,357.5,SBD
1,Linette Bogdan,,F,1980,42,,NJ,Raw,FR-M1,76.66,84,135,145,-152.5,145,82.5,87.5,-90,87.5,172.5,185,187.5,187.5,420,SBD
2,Carissa Maples,,F,1978,44,,FL,Raw,FR-M1,82.4,84,120,125,127.5,127.5,60,-62.5,62.5,62.5,130,-137.5,-137.5,130,320,SBD
1,Melissa Copeland,,F,1977,44,,MD,Raw,FR-M1,113.93,84+,192.5,202.5,208,208,115,120.5,125.5,125.5,195,-205,210.5,210.5,544,SBD
1,Lynn Aronica,,F,1972,50,,NY,Raw,FR-M2,46.45,47,75,80,,80,50,52.5,-55,52.5,102.5,110,115,115,247.5,SBD
1,Winifred Abramson,,F,1970,51,,NY,Raw,FR-M2,51.9,52,110,115,120,120,55,57.5,60,60,132.5,140,-142.5,140,320,SBD
1,Melissa Forbis,,F,1966,56,,NY,Raw,FR-M2,52.95,57,90,95,100,100,47.5,50,52.5,52.5,102.5,110,115,115,267.5,SBD
1,Michelle Carlascio,,F,1971,51,,FL,Raw,FR-M2,62.5,63,42.5,50,55,55,35,-47.5,47.5,47.5,55,77.5,100,100,202.5,SBD
1,Roberta Carlson #1,,F,1965,57,,WA,Raw,FR-M2,67.08,69,125,130,135.5,135.5,67.5,72.5,-77.5,72.5,162.5,170,177.5,177.5,385.5,SBD
2,Nicole Carrier,,F,1972,49,,NH,Raw,FR-M2,68.11,69,117.5,125,130,130,67.5,72.5,-75,72.5,132.5,-142.5,145,145,347.5,SBD
1,Cynthia Line,,F,1968,54,,PA,Raw,FR-M2,72.22,76,115,122.5,127.5,127.5,70,75,77.5,77.5,142.5,150,155,155,360,SBD
2,Lisa Perry #1,,F,1969,53,,NJ,Raw,FR-M2,69.96,76,105,110,115,115,60,65,-70,65,145,152.5,158,158,338,SBD
3,Michelle Cornwell,,F,1966,56,,NY,Raw,FR-M2,74.98,76,-90,90,100,100,55,60,62.5,62.5,120,130,137.5,137.5,300,SBD
4,Coreen Ellrodt,,F,1963,59,,FL,Raw,FR-M2,74.7,76,-75,75,-80,75,42.5,45,47.5,47.5,87.5,95,100,100,222.5,SBD
1,Kelly Gibson Bateman,,F,1969,53,,NY,Raw,FR-M2,79.58,84,140,147.5,155,155,82.5,87.5,90,90,140,150,160,160,405,SBD
2,Michal Harris,,F,1970,52,,FL,Raw,FR-M2,83.39,84,97.5,115,-120,115,47.5,55,-57.5,55,130,142.5,-157.5,142.5,312.5,SBD
1,Lilyan Jackson,,F,1970,52,,TX,Raw,FR-M2,179.67,84+,160,165,175,175,107.5,117.5,120,120,165,172.5,190,190,485,SBD
2,Cris Coniglio,,F,1969,53,,FL,Raw,FR-M2,94.71,84+,75,80,85,85,-55,60,62.5,62.5,90,95,100,100,247.5,SBD
1,Lynne Homan,,F,1962,59,,TX,Raw,FR-M3,56.85,57,77.5,82.5,85,85,57.5,60,-62.5,60,110,117.5,122.5,122.5,267.5,SBD
2,Dora Justice,,F,1957,64,,TX,Raw,FR-M3,56.5,57,60,65,70,70,65,70,72.5,72.5,80,90,100,100,242.5,SBD
1,Suzanne LaForge,,F,1959,62,,FL,Raw,FR-M3,60.05,63,92.5,105,-115,105,57.5,60,65,65,-140,150,-160,150,320,SBD
1,Tina Weber,,F,1956,66,,FL,Raw,FR-M3,67.27,69,107.5,112.5,-115,112.5,62.5,67.5,-72.5,67.5,115,125,137.5,137.5,317.5,SBD
1,Barbara Beaudin,,F,1961,60,,NH,Raw,FR-M3,74.24,76,-100,100,-105,100,57.5,62.5,-67.5,62.5,142.5,150,-162.5,150,312.5,SBD
1,Vicki Brackett,,F,1957,64,,GA,Raw,FR-M3,123.55,84+,-110,-110,110,110,67.5,72.5,75,75,160,170,175,175,360,SBD
1,Mary Pregler,,F,1941,80,,FL,Raw,FR-M4,54.47,57,25,27.5,30,30,25,27.5,-30,27.5,65,75,92.5,92.5,150,SBD
1,Shelly Stettner,,F,1951,71,,MI,Raw,FR-M4,60.4,63,100,110,115,115,60,65,67.5,67.5,130,-137.5,-137.5,130,312.5,SBD
2,Nancy Sassaman,,F,1948,74,,CA,Raw,FR-M4,59.8,63,-45,45,62.5,62.5,30,35,-42.5,35,85,95,107.5,107.5,205,SBD
1,Gale Williams,,F,1947,74,,GA,Raw,FR-M4,67.1,69,80,85,87.5,87.5,55,60,62.5,62.5,120,125,126.5,126.5,276.5,SBD
2,Sandra A Simmons,,F,1948,74,,FL,Raw,FR-M4,66.98,69,-72.5,-72.5,72.5,72.5,37.5,42.5,45,45,107.5,-115,-115,107.5,225,SBD
1,Madison Hamilton,,F,2005,17,,FL,Raw,FR-Sj,56.4,57,-100,100,105,105,-62.5,62.5,-65,62.5,110,115,-117.5,115,282.5,SBD
1,Chloe Suchomel,,F,2005,16,,WI,Raw,FR-Sj,61.8,63,115,-120,122.5,122.5,82.5,87.5,-90,87.5,145,150,155,155,365,SBD
2,Mackenzie Montoya,,F,2004,18,,NV,Raw,FR-Sj,62.9,63,105,115,125,125,60,67.5,-72.5,67.5,132.5,142.5,-147.5,142.5,335,SBD
3,Myah Brown,,F,2005,16,,TX,Raw,FR-Sj,61.45,63,105,115,-120,115,50,55,60,60,115,132.5,137.5,137.5,312.5,SBD
1,Joy Rindfleisch,,F,2004,17,,NY,Raw,FR-Sj,66.34,69,117.5,125,130,130,90,95,100.5,100.5,137.5,142.5,150,150,380.5,SBD
DQ,Brianna Jordan,,F,2004,17,,FL,Raw,FR-Sj,68.92,69,-147.5,-147.5,-155,,95,-102.5,-102.5,95,152.5,-160,162.5,162.5,,SBD
1,Courtney Comer,,F,2003,18,,FL,Raw,FR-Sj,75.23,76,142.5,147.5,150,150,105,110,112.5,112.5,167.5,177.5,185,185,447.5,SBD
1,Shanti Khalsa,,F,2006,15,,NM,Raw,FR-Sj,82.65,84,85,95,-102.5,95,37.5,42.5,45,45,100,110,122.5,122.5,262.5,SBD
1,Mahailya Reeves,,F,2003,18,,FL,Raw,FR-Sj,138.37,84+,212.5,-220,225,225,160,165,-167.5,165,197.5,-215,220,220,610,SBD
G,David Fuller,,M,1969,52,,FL,Raw,MR-O,82.4,83,-150,150,-162.5,150,70,85,-92.5,85,185,197.5,-207.5,197.5,432.5,SBD
1,Bodie LaCoe,,M,2003,19,,PA,Raw,MR-Jr,52.5,53,160,-170,170,170,85,95,100,100,205,215,225,225,495,SBD
2,Joby Truong,,M,2000,22,,TX,Raw,MR-Jr,52.45,53,170,180,-185,180,85,-90,90,90,200,-210,-222.5,200,470,SBD
1,Yash Pednekar,,M,1999,23,,NJ,Raw,MR-Jr,57.9,59,-135,142.5,150,150,77.5,82.5,87.5,87.5,197.5,210,-220,210,447.5,SBD
1,Zach Taylor,,M,2000,21,,CT,Raw,MR-Jr,65.5,66,210,220,-230,220,125,-130,,125,240,,,240,585,SBD
1,Jeffrey Leung,,M,1999,22,,WA,Raw,MR-Jr,73.55,74,215,230,242.5,242.5,142.5,-147.5,147.5,147.5,282.5,297.5,-307.5,297.5,687.5,SBD
2,Tyler Mooney,,M,2001,20,,FL,Raw,MR-Jr,68.15,74,125,127.5,130,130,90,-92.5,-92.5,90,-167.5,-167.5,167.5,167.5,387.5,SBD
DQ,Maxx Batchellor,,M,2003,18,,FL,Raw,MR-Jr,73.5,74,167.5,-177.5,-177.5,167.5,-100,-100,-100,,210,217.5,220,220,,SBD
1,Sean Jin,,M,1999,23,,CA,Raw,MR-Jr,81.77,83,237.5,257.5,272.5,272.5,177.5,185,190.5,190.5,257.5,277.5,290,290,753,SBD
2,Alex Sydor,,M,2002,19,,NY,Raw,MR-Jr,82.97,83,260,270,272.5,272.5,150,-155,-155,150,285,300,-331,300,722.5,SBD
3,Bradley Robinson,,M,2001,21,,FL,Raw,MR-Jr,81.83,83,220,235,242.5,242.5,130,135,-140,135,280,300,-311.5,300,677.5,SBD
4,Evan Gonsorcik,,M,2003,19,,MA,Raw,MR-Jr,81.14,83,180,-190,,180,120,-125,-125,120,235,250,-260,250,550,SBD
1,Huaiyu Tan,,M,1977,45,,FL,Raw,MR-M1,65.8,66,150,157.5,162.5,162.5,95,100,102.5,102.5,200,207.5,215,215,480,SBD
2,Lee Rogers,,M,1978,43,,NH,Raw,MR-M1,65.4,66,132.5,142.5,-147.5,142.5,110,117.5,-120,117.5,175,-187.5,,175,435,SBD
1,Michael Haran,,M,1982,39,,MD,Raw,MR-M1,72.86,74,225,240,-250,240,137.5,-142.5,142.5,142.5,225,240,-247.5,240,622.5,SBD
2,Lauren Cohen,,M,1979,42,,MA,Raw,MR-M1,73.29,74,205,220,235,235,120,132.5,-137.5,132.5,205,,,205,572.5,SBD
DQ,Ray Rivera,,M,1980,41,,NC,Raw,MR-M1,73.28,74,165,175,180,180,-110,-110,-110,,215,225,-230,225,,SBD
1,Jonathan Losa,,M,1982,40,,FL,Raw,MR-M1,82.87,83,205,220,227.5,227.5,160,170,180,180,217.5,227.5,247.5,247.5,655,SBD
2,WC Waldron,,M,1980,41,,GA,Raw,MR-M1,82.84,83,207.5,-215,,207.5,150,152.5,-155,152.5,250,272.5,-275,272.5,632.5,SBD
3,Christopher Cubero,,M,1979,42,,NY,Raw,MR-M1,82.34,83,200,212.5,-220,212.5,-142.5,142.5,-155,142.5,237.5,255,-277.5,255,610,SBD
1,Jensen Monterrey,,M,1973,49,,CA,Raw,MR-M1,84.07,93,-175,175,185,185,120,-130,-130,120,215,227.5,-230,227.5,532.5,SBD
1,Eric Kupperstein,,M,1966,56,,MA,Raw,MR-M2,58.2,59,-125,125,,125,55,,,55,175,,,175,355,SBD
1,Michael Feldhaus,,M,1966,56,,OH,Raw,MR-M2,65.25,66,157.5,175,186,186,102.5,112.5,115,115,195,210,-215,210,511,SBD
2,Brian Mott,,M,1970,51,,FL,Raw,MR-M2,65.25,66,80,87.5,90,90,90,92.5,-95,92.5,110,125,137.5,137.5,320,SBD
1,Travis Pardue,,M,1971,51,,NC,Raw,MR-M2,73,74,170,180,185,185,105,110,115,115,222.5,245,252.5,252.5,552.5,SBD
2,Chris Dishno,,M,1972,49,,CO,Raw,MR-M2,73.7,74,180,187.5,195,195,102.5,110,115,115,230,242.5,-247.5,242.5,552.5,SBD
3,John Demchak,,M,1967,54,,SC,Raw,MR-M2,73.65,74,167.5,177.5,182.5,182.5,82.5,-87.5,-87.5,82.5,212.5,225,-230,225,490,SBD
1,Ken Bray,,M,1969,52,,OH,Raw,MR-M2,80.69,83,205,227.5,-235,227.5,125,130,-135,130,265,275,280,280,637.5,SBD
2,Reginald Miles,,M,1972,49,,SC,Raw,MR-M2,82.44,83,82.5,,,82.5,177.5,-186,,177.5,-82.5,82.5,,82.5,342.5,SBD
1,Rocky Yearwood,,M,1959,62,,NC,Raw,MR-M3,72.7,74,160,170,180,180,100,-105,,100,205,220,232.5,232.5,512.5,SBD
2,George Kern,,M,1960,61,,FL,Raw,MR-M3,72.5,74,105,110,-115,110,85,90,-92.5,90,157.5,162.5,167.5,167.5,367.5,SBD
1,Willie Wong,,M,1961,60,,CA,Raw,MR-M3,82.42,83,175,185,-195,185,95,100,105,105,180,200,215,215,505,SBD
2,Shaun Eisenhauer,,M,1958,64,,PA,Raw,MR-M3,81.98,83,137.5,142.5,147.5,147.5,100,105,-110,105,160,170,180,180,432.5,SBD
3,John March,,M,1957,64,,FL,Raw,MR-M3,81.7,83,45,65,85,85,117.5,127.5,-137.5,127.5,60,-70,85,85,297.5,SBD
4,Lawrence Milford,,M,1953,68,,FL,Raw,MR-M3,78.26,83,-52.5,57.5,62.5,62.5,50,-55,-55,50,100,105,107.5,107.5,220,SBD
1,Sam Felts,,M,1952,69,,TX,Raw,MR-M4,58.4,59,-85,85,100,100,80,95,-97.5,95,100,120,130,130,325,SBD
2,George Geots,,M,1946,75,,FL,Raw,MR-M4,57.8,59,-30,30,,30,30,,,30,122.5,130,-132.5,130,190,SBD
1,Robert Cohen,,M,1947,74,,NY,Raw,MR-M4,64.1,66,45,67.5,90,90,45,57.5,62.5,62.5,67.5,102.5,127.5,127.5,280,SBD
1,Dale Garlitz,,M,1950,72,,MT,Raw,MR-M4,71.04,74,140,150,157.5,157.5,95,102.5,-105,102.5,170,180,-187.5,180,440,SBD
1,Edward Regua,,M,1951,70,,NM,Raw,MR-M4,81.86,83,137.5,147.5,-152.5,147.5,80,87.5,92.5,92.5,170,185,192.5,192.5,432.5,SBD
2,Frank Smith #1,,M,1947,75,,NH,Raw,MR-M4,80.73,83,70,80,-85,80,85,95,-100,95,127.5,137.5,142.5,142.5,317.5,SBD
1,Om Pednekar,,M,2004,17,,NJ,Raw,MR-Sj,57.35,59,127.5,137.5,142.5,142.5,72.5,77.5,-82.5,77.5,157.5,170,182.5,182.5,402.5,SBD
1,Mark Weinberg,,M,2004,17,,FL,Raw,MR-Sj,59.65,66,100,110,115,115,-72.5,-77.5,77.5,77.5,135,142.5,-152.5,142.5,335,SBD
1,Clark Whitefield,,M,2004,17,,NY,Raw,MR-Sj,72.84,74,202.5,212.5,217.5,217.5,130,140,145,145,205,225,237.5,237.5,600,SBD
2,Ezekiel Malphurs,,M,2007,14,,FL,Raw,MR-Sj,71.25,74,135,140,-147.5,140,107.5,-112.5,-112.5,107.5,165,175,-182.5,175,422.5,SBD
1,Noah McKinney,,M,2004,17,,MD,Raw,MR-Sj,82.18,83,152.5,165,182.5,182.5,115,120,-125,120,192.5,207.5,212.5,212.5,515,SBD
2,Keith Stroud,,M,2006,15,,TN,Raw,MR-Sj,82.37,83,157.5,167.5,-182.5,167.5,100,110,115,115,187.5,200,-207.5,200,482.5,SBD
3,Daniel Shrank,,M,2004,18,,FL,Raw,MR-Sj,82.23,83,135,142.5,155,155,107.5,120,-127.5,120,182.5,200,-210,200,475,SBD
4,Zavon Starks,,M,2006,16,,FL,Raw,MR-Sj,82.95,83,-115,117.5,-127.5,117.5,77.5,-82.5,82.5,82.5,170,-180,187.5,187.5,387.5,SBD
G,Mery Jativa,,F,1992,30,,FL,Single-ply,F-O,61.25,63,170,185,190,190,92.5,97.5,100,100,150,157.5,162.5,162.5,452.5,SBD
G,Janet Trevino,,F,1979,43,,,Single-ply,F-O,82.35,84,115,122.5,-127.5,122.5,55,77.5,-85,77.5,145,160,-170,160,360,SBD
1,Madeline Fitch,,F,1999,23,,IL,Single-ply,F-Jr,54.6,57,155,-162.5,-162.5,155,70,75,77.5,77.5,140,147.5,152.5,152.5,385,SBD
1,Katelynn Caillouet,,F,2002,19,,LA,Single-ply,F-Jr,61.5,63,130,140,-147.5,140,85,-90,90,90,120,127.5,-130,127.5,357.5,SBD
1,Alexandra Chavez,,F,,,,TX,Single-ply,F-Jr,83.5,84,195,-205,205,205,125,135,137.5,137.5,160,172.5,-187.5,172.5,515,SBD
1,Maura Shuttleworth,,F,1976,46,,NM,Single-ply,F-M1,56.55,57,70,75,80,80,110,117.5,-125.5,117.5,85,95,105,105,302.5,SBD
1,Donna Marts,,F,1960,,,WY,Single-ply,F-M3,67.9,69,130,,,130,90,95,100,100,160,,,160,390,SBD
1,Lindsay Seamans,,F,1985,37,,NC,Single-ply,F-O,46.3,47,120,122.5,-125,122.5,67.5,-70,70,70,130,137.5,140,140,332.5,SBD
2,Jasmine Barlow,,F,2004,17,,LA,Single-ply,F-O,38.6,47,-75,75,-77.5,75,37.5,42.5,-45,42.5,75,80,-82.5,80,197.5,SBD
1,Katelyn Gmernicki,,F,1993,28,,GA,Single-ply,F-O,56.65,57,147.5,157.5,-160,157.5,102.5,107.5,110,110,150,160,-162.5,160,427.5,SBD
2,Madeline Fitch,,F,1999,23,,IL,Single-ply,F-O,54.6,57,155,-162.5,-162.5,155,70,75,77.5,77.5,140,147.5,152.5,152.5,385,SBD
1,Patricia Southerland,,F,1988,33,,MS,Single-ply,F-O,62.6,63,180,-187.5,187.5,187.5,127.5,132.5,-135,132.5,170,-180,180,180,500,SBD
2,Isabel Olivarez,,F,2005,16,,TX,Single-ply,F-O,61.8,63,132.5,147.5,-150,147.5,95,100,105,105,137.5,145,150,150,402.5,SBD
1,Katherine Cargill,,F,2005,17,,GA,Single-ply,F-O,67.55,69,-165,165,172.5,172.5,95,102.5,105,105,145,150,155,155,432.5,SBD
DQ,Rebecca Main,,F,1984,38,,MN,Single-ply,F-O,76,76,102.5,-110,110,110,-85,-85,-85,,102.5,110,112.5,112.5,,SBD
1,Alexandra Chavez,,F,,,,TX,Single-ply,F-O,83.5,84,195,-205,205,205,125,135,137.5,137.5,160,172.5,-187.5,172.5,515,SBD
1,Saleen Nyman,,F,2004,18,,TX,Single-ply,F-Sj,42.55,43,102.5,-115,115,115,52.5,57.5,-62.5,57.5,110,117.5,120,120,292.5,SBD
2,Camille Crutcher,,F,2007,14,,LA,Single-ply,F-Sj,43,43,85,-92.5,92.5,92.5,42.5,45,-52.5,45,77.5,87.5,92.5,92.5,230,SBD
3,Jasmine Barlow,,F,2004,17,,LA,Single-ply,F-Sj,38.6,43,-75,75,-77.5,75,37.5,42.5,-45,42.5,75,80,-82.5,80,197.5,SBD
1,Lola Cheramie,,F,2004,17,,LA,Single-ply,F-Sj,46.55,47,115,-127.5,-130,115,57.5,62.5,67.5,67.5,112.5,122.5,-137.5,122.5,305,SBD
1,Mallory Guillie,,F,2004,18,,LA,Single-ply,F-Sj,51.4,52,117.5,127.5,-132.5,127.5,65,70,75,75,110,120,-122.5,120,322.5,SBD
2,Maura McLaughlin,,F,2004,17,,MS,Single-ply,F-Sj,47.8,52,97.5,105,-110,105,-65,65,-67.5,65,100,107.5,-112.5,107.5,277.5,SBD
1,Sarah Amacker,,F,2004,17,,LA,Single-ply,F-Sj,55.65,57,130,137.5,-142.5,137.5,75,77.5,80,80,127.5,132.5,140,140,357.5,SBD
2,Katelyn Miley,,F,2006,16,,LA,Single-ply,F-Sj,56.8,57,125,-130,-130,125,57.5,60,-62.5,60,132.5,140,145,145,330,SBD
3,Lila Cooper,,F,2007,15,,LA,Single-ply,F-Sj,56.35,57,122.5,-135,-135,122.5,60,-65,65,65,122.5,-135,-135,122.5,310,SBD
1,Isabel Olivarez,,F,2005,16,,TX,Single-ply,F-Sj,61.8,63,132.5,147.5,-150,147.5,95,100,105,105,137.5,145,150,150,402.5,SBD
2,Aeryn Anderson,,F,2004,17,,LA,Single-ply,F-Sj,59.05,63,127.5,137.5,147.5,147.5,67.5,-72.5,72.5,72.5,127.5,137.5,-147.5,137.5,357.5,SBD
3,Kalea Keating,,F,2005,16,,LA,Single-ply,F-Sj,60.6,63,122.5,132.5,-140,132.5,55,62.5,67.5,67.5,-112.5,112.5,125,125,325,SBD
1,Kasee Sketoe,,F,2004,18,,LA,Single-ply,F-Sj,67.05,69,160,-172.5,-172.5,160,95,100,105,105,-150,155,167.5,167.5,432.5,SBD
2,Katherine Cargill,,F,2005,17,,GA,Single-ply,F-Sj,67.55,69,-165,165,172.5,172.5,95,102.5,105,105,145,150,155,155,432.5,SBD
1,Haileigh Lupo,,F,2004,18,,LA,Single-ply,F-Sj,74.75,76,162.5,-172.5,-172.5,162.5,112.5,122.5,-137.5,122.5,122.5,137.5,-147.5,137.5,422.5,SBD
1,Alejandra Salas,,F,2004,18,,TX,Single-ply,F-Sj,83.5,84,157.5,172.5,-182.5,172.5,75,80,-85,80,145,160,-167.5,160,412.5,SBD
1,Karson Oliver,,F,2005,17,,LA,Single-ply,F-Sj,124.7,84+,212.5,222.5,230,230,105,110,115,115,165,170,177.5,177.5,522.5,SBD
2,Arabella Gelhaar,,F,2005,17,,WI,Single-ply,F-Sj,105.55,84+,182.5,195,205,205,102.5,107.5,112.5,112.5,155,162.5,167.5,167.5,485,SBD
3,Kamaria Evans,,F,2005,16,,LA,Single-ply,F-Sj,102.8,84+,167.5,177.5,185,185,-92.5,92.5,97.5,97.5,167.5,175,180,180,462.5,SBD
4,Bailey Fields,,F,2006,15,,LA,Single-ply,F-Sj,89.65,84+,162.5,175,180,180,77.5,-87.5,87.5,87.5,112.5,125,140,140,407.5,SBD
G,TraShon Hightower,,M,1996,26,,GA,Single-ply,M-O,79.65,83,295,310,322.5,322.5,170,180,185,185,265,285,295,295,802.5,SBD
G,Chris Tran,,M,1988,33,,,Single-ply,M-O,58.76,59,235,247.5,255,255,140,147.5,-152.5,147.5,235,247.5,255,255,657.5,SBD
G,Mario Leos,,M,1992,29,,TX,Single-ply,M-O,59.45,66,205,215,-220,215,160,167.5,170,170,220,230,235,235,620,SBD
1,Landon Diepenbrock,,M,2003,18,,LA,Single-ply,M-Jr,65,66,182.5,192.5,-200,192.5,122.5,137.5,145,145,182.5,192.5,200,200,537.5,SBD
2,Mason Quave,,M,2003,19,,LA,Single-ply,M-Jr,64,66,-190,190,200,200,137.5,-145,-145,137.5,192.5,-202.5,-202.5,192.5,530,SBD
3,William Varnado,,M,2003,19,,LA,Single-ply,M-Jr,63.2,66,160,165,-167.5,165,102.5,107.5,110,110,175,182.5,190,190,465,SBD
1,Jeremiah Parker,,M,1999,23,,MS,Single-ply,M-Jr,72,74,175,185,-195,185,115,120,-125,120,195,205,215,215,520,SBD
1,Matthew Gross,,M,2001,21,,MS,Single-ply,M-Jr,89.63,93,195,205,215,215,115,-117.5,,115,195,210,217.5,217.5,547.5,SBD
1,Zen McCollum,,M,1999,22,,CO,Single-ply,M-Jr,163.6,120+,-365,365,385,385,-260,260,-270,260,287.5,305,317.5,317.5,962.5,SBD
2,Luke Mellon,,M,2000,21,,AZ,Single-ply,M-Jr,182,120+,320,347.5,365,365,195,210,-225,210,225,252.5,-277.5,252.5,827.5,SBD
1,Damarrio Holloway,,M,1980,41,,GA,Single-ply,M-M1,73.4,74,260,275,280,280,200,205,210,210,265,272.5,277.5,277.5,767.5,SBD
1,Nathan Walton,,M,1976,46,,GA,Single-ply,M-M1,81.96,83,295,307.5,315,315,-182.5,-182.5,182.5,182.5,282.5,305,310,310,807.5,SBD
1,Dale McLaren,,M,1976,46,,GA,Single-ply,M-M1,104.21,105,312.5,322.5,327.5,327.5,267.5,-272.5,-272.5,267.5,282.5,297.5,-322.5,297.5,892.5,SBD
1,Barron Henderson,,M,1976,45,,FL,Single-ply,M-M1,117.8,120,295,320,-325,320,190,200,205,205,280,290,-295,290,815,SBD
2,Ryan Donnelly,,M,1982,39,,NJ,Single-ply,M-M1,109.8,120,257.5,277.5,287.5,287.5,197.5,210,215,215,257.5,275,282.5,282.5,785,SBD
1,Andrew Cargill #2,,M,1980,42,,GA,Single-ply,M-M1,143,120+,300,312.5,-317.5,312.5,252.5,260,265,265,285,297.5,-312.5,297.5,875,SBD
2,Bill McCarthy,,M,1981,41,,MD,Single-ply,M-M1,131.2,120+,265,280,287.5,287.5,230,235,-255,235,260,277.5,287.5,287.5,810,SBD
1,Eric Kupperstein,,M,1966,,,MA,Single-ply,M-M2,58.04,59,205,-225,235,235,60,65,70,70,205,220,235,235,540,SBD
1,Travis Pardue,,M,1971,51,,NC,Single-ply,M-M2,73.99,74,195,205,210,210,130,-137.5,137.5,137.5,210,217.5,245,245,592.5,SBD
2,Chris Boillot,,M,1963,,,AZ,Single-ply,M-M2,73.17,74,-210,-210,210,210,-135,135,140,140,205,212.5,-227.5,212.5,562.5,SBD
1,Keith Nautel,,M,1965,,,NY,Single-ply,M-M2,84.17,93,245,250,255,255,147.5,180,-185,180,265,270,-280.5,270,705,SBD
2,Richard Johnson #2,,M,1963,,,MA,Single-ply,M-M2,92.6,93,225,240,245,245,117.5,122.5,125,125,220,230,240,240,610,SBD
1,Jason Johnson,,M,1971,50,,WI,Single-ply,M-M2,103.74,105,270,280,292.5,292.5,225,235,-245,235,270,280,-290,280,807.5,SBD
2,Michael Kalter,,M,1972,50,,ME,Single-ply,M-M2,103.2,105,265,-280,,265,160,170,-175,170,270,290,-300,290,725,SBD
1,Wilson Martinez,,M,1965,,,NJ,Single-ply,M-M2,115.8,120,-265,265,285,285,195,202.5,207.5,207.5,265,280,285,285,777.5,SBD
2,Jeffrey Krause,,M,1971,50,,FL,Single-ply,M-M2,117,120,192.5,-227.5,227.5,227.5,145,162.5,-167.5,162.5,227.5,250,,250,640,SBD
1,Steven Davenport,,M,1971,51,,NE,Single-ply,M-M2,131.8,120+,-285,285,,285,157.5,170,185,185,230,250,272.5,272.5,742.5,SBD
1,Michael Rodriguez #13,,M,1961,,,TX,Single-ply,M-M3,72.26,74,190,200,-227.5,200,142.5,147.5,-160,147.5,210,222.5,-232.5,222.5,570,SBD
1,Thomas Cencich,,M,1960,,,CO,Single-ply,M-M3,91.18,93,75,175,185,185,125,207.5,-212.5,207.5,150,190,195,195,587.5,SBD
1,Brad Salter,,M,1954,,,TX,Single-ply,M-M3,112.4,120,140,-160,-160,140,105,115,120,120,165,180,190,190,450,SBD
1,Bill Campbell,,M,1957,,,GA,Single-ply,M-M3,147,120+,125,,,125,185,225,240,240,125,150,,150,515,SBD
1,Jeff Hughes,,M,1946,,,WA,Single-ply,M-M4,80.65,83,-130,130,137.5,137.5,95,102.5,-110,102.5,182.5,192.5,202.5,202.5,442.5,SBD
1,Bruce Barry,,M,1952,,,PA,Single-ply,M-M4,101.2,105,-210,210,235.5,235.5,70,80,,80,-165,165,-205,165,480.5,SBD
1,Eric Kupperstein,,M,1966,,,MA,Single-ply,M-O,58.04,59,205,-225,235,235,60,65,70,70,205,220,235,235,540,SBD
1,Matthew Arnold,,M,1987,34,,NC,Single-ply,M-O,65.9,66,207.5,215,220,220,-140,140,-142.5,140,190,200,-212.5,200,560,SBD
1,Nathan Landry,,M,1987,35,,ME,Single-ply,M-O,72.68,74,250,260,270,270,-170,175,185,185,235,245,255,255,710,SBD
2,Travis Pardue,,M,1971,51,,NC,Single-ply,M-O,73.99,74,195,205,210,210,130,-137.5,137.5,137.5,210,217.5,245,245,592.5,SBD
3,Alexander Kang,,M,1984,37,,VA,Single-ply,M-O,73.55,74,225,-245,-245,225,100,150,-155,150,180,200,205,205,580,SBD
1,Nathan Walton,,M,1976,46,,GA,Single-ply,M-O,81.96,83,295,307.5,315,315,-182.5,-182.5,182.5,182.5,282.5,305,310,310,807.5,SBD
2,Zachary Jones #1,,M,1990,32,,TX,Single-ply,M-O,82.25,83,232.5,245,250,250,190,197.5,200,200,230,245,250,250,700,SBD
1,Ian MacPherson,,M,1994,28,,MA,Single-ply,M-O,92.87,93,305,315,325,325,207.5,215,220,220,265,275,287.5,287.5,832.5,SBD
2,Jordan Kummer,,M,1989,32,,GA,Single-ply,M-O,91.19,93,227.5,240,-245,240,157.5,162.5,-165,162.5,237.5,250,-257.5,250,652.5,SBD
3,Jared Weers,,M,1987,35,,NE,Single-ply,M-O,92.63,93,217.5,-227.5,227.5,227.5,127.5,132.5,,132.5,210,220,230,230,590,SBD
4,Daniel Segura,,M,1998,23,,FL,Single-ply,M-O,89.06,93,160,180,185,185,-110,110,-117.5,110,185,200,210,210,505,SBD
1,Nelson Martínez,,M,1986,36,,FL,Single-ply,M-O,102.49,105,325,350,365,365,-250,250,260,260,275,285,290,290,915,SBD
2,Dale McLaren,,M,1976,46,,GA,Single-ply,M-O,104.21,105,312.5,322.5,327.5,327.5,267.5,-272.5,-272.5,267.5,282.5,297.5,-322.5,297.5,892.5,SBD
3,Jason Johnson,,M,1971,50,,WI,Single-ply,M-O,103.74,105,270,280,292.5,292.5,225,235,-245,235,270,280,-290,280,807.5,SBD
4,Austin Brown,,M,1990,32,,GA,Single-ply,M-O,104.37,105,75,-310,-320,75,297.5,310,-320,310,75,-285,-290,75,460,SBD
1,Ryan Donnelly,,M,1982,39,,NJ,Single-ply,M-O,109.8,120,257.5,277.5,287.5,287.5,197.5,210,215,215,257.5,275,282.5,282.5,785,SBD
2,Mark Leebrick,,M,1994,28,,LA,Single-ply,M-O,109.8,120,280,300,320,320,200,212.5,220,220,217.5,232.5,240,240,780,SBD
3,Wilson Martinez,,M,1965,,,NJ,Single-ply,M-O,115.8,120,-265,265,285,285,195,202.5,207.5,207.5,265,280,285,285,777.5,SBD
1,Zen McCollum,,M,1999,22,,CO,Single-ply,M-O,163.6,120+,-365,365,385,385,-260,260,-270,260,287.5,305,317.5,317.5,962.5,SBD
2,Logan Barrett,,M,1985,36,,GA,Single-ply,M-O,136.8,120+,340,352.5,357.5,357.5,235,242.5,-247.5,242.5,302.5,315,325,325,925,SBD
3,Andrew Cargill #2,,M,1980,42,,GA,Single-ply,M-O,143,120+,300,312.5,-317.5,312.5,252.5,260,265,265,285,297.5,-312.5,297.5,875,SBD
4,Luke Mellon,,M,2000,21,,AZ,Single-ply,M-O,182,120+,320,347.5,365,365,195,210,-225,210,225,252.5,-277.5,252.5,827.5,SBD
5,Bill McCarthy,,M,1981,41,,MD,Single-ply,M-O,131.2,120+,265,280,287.5,287.5,230,235,-255,235,260,277.5,287.5,287.5,810,SBD
1,Nicolas Calidonia,,M,2005,17,,LA,Single-ply,M-Sj,51.92,53,162.5,172.5,-180,172.5,102.5,112.5,120,120,162.5,172.5,182.5,182.5,475,SBD
2,Jonathan Becerril,,M,2006,16,,TX,Single-ply,M-Sj,51.66,53,152.5,165,-175,165,82.5,92.5,-102.5,92.5,-167.5,167.5,-180,167.5,425,SBD
1,Zachary Montz,,M,2004,18,,LA,Single-ply,M-Sj,58,59,172.5,187.5,195,195,97.5,105,110,110,172.5,187.5,195,195,500,SBD
2,John Sylvera,,M,2006,16,,LA,Single-ply,M-Sj,57.6,59,162.5,170,-177.5,170,75,82.5,-92.5,82.5,177.5,-195,195,195,447.5,SBD
1,Lawson Lillo,,M,2006,16,,LA,Single-ply,M-Sj,64.8,66,182.5,190,197.5,197.5,-142.5,142.5,147.5,147.5,175,185,195,195,540,SBD
1,Jacob Pennington,,M,2004,17,,LA,Single-ply,M-Sj,68.55,74,215,225,-230,225,125,132.5,142.5,142.5,172.5,180,197.5,197.5,565,SBD
1,Christian Laja,,M,2004,18,,TX,Single-ply,M-Sj,81.7,83,252.5,267.5,282.5,282.5,132.5,142.5,-147.5,142.5,262.5,272.5,-282.5,272.5,697.5,SBD
2,Jaylin Magee,,M,2005,17,,LA,Single-ply,M-Sj,81.2,83,257.5,267.5,-270,267.5,147.5,152.5,157.5,157.5,-257.5,257.5,262.5,262.5,687.5,SBD
3,Gage Lisle,,M,2004,17,,LA,Single-ply,M-Sj,80.82,83,-230,230,237.5,237.5,142.5,147.5,150,150,217.5,225,235,235,622.5,SBD
1,Chase Lawton,,M,2004,18,,LA,Single-ply,M-Sj,91.6,93,275,-292.5,-292.5,275,112.5,190,,190,227.5,260,290,290,755,SBD
1,Chandler Loescher,,M,2004,17,,LA,Single-ply,M-Sj,103.6,105,247.5,265,-275,265,232.5,-252.5,-252.5,232.5,247.5,265,272.5,272.5,770,SBD
1,Caleb Pennington,,M,2003,18,,LA,Single-ply,M-Sj,108.4,120,-280,280,295,295,-190,190,205,205,210,220,-240,220,720,SBD
G,Danfer Sylvain,,M,2002,20,,FL,Raw,MR-O,92.36,93,-232.5,-232.5,232.5,232.5,-155,165,-175,165,282.5,292.5,300,300,697.5,SBD
G,Daniel Padron,,M,2003,19,,FL,Raw,MR-O,106.2,120,200,217.5,227.5,227.5,135,142.5,-150,142.5,220,240,-255,240,610,SBD
G,Joseph Tyler,,M,2005,17,,NY,Raw,MR-O,79.35,83,180,197.5,-202.5,197.5,110,115,122.5,122.5,225,235,240,240,560,SBD
G,Robert Fuller,,M,1970,51,,ND,Raw,MR-O,150.39,120+,145,165,185,185,105,125,145,145,165,200,227.5,227.5,557.5,SBD
G,Noah Espinoza,,M,2006,15,,AZ,Raw,MR-O,120.75,120+,145,155,167.5,167.5,75,82.5,-90,82.5,145,155,-165,155,405,SBD
1,Shane Nutt,,M,2000,22,,IN,Raw,MR-Jr,91.3,93,267.5,288,295.5,295.5,167.5,172.5,175,175,310.5,325.5,-345,325.5,796,SBD
2,Alexander Olarte-Hood,,M,1999,23,,CA,Raw,MR-Jr,92.53,93,270,285,291,291,187.5,193,197,197,275,295,-310,295,783,SBD
3,Jason Wu,,M,2000,21,,MA,Raw,MR-Jr,91.7,93,260,-270,-270,260,120,-127.5,-127.5,120,265,272.5,-280,272.5,652.5,SBD
4,Dan Morrell,,M,2002,19,,FL,Raw,MR-Jr,92.98,93,200,210,-220,210,130,,,130,220,-240,,220,560,SBD
5,Vance Bussard,,M,2000,21,,FL,Raw,MR-Jr,85.15,93,160,170,182.5,182.5,135,140,-142.5,140,182.5,205,217.5,217.5,540,SBD
1,Anthony McNaughton,,M,2000,22,,NY,Raw,MR-Jr,104.4,105,295,312.5,320,320,200,210,220,220,295,310,320,320,860,SBD
2,Nathan Dunn,,M,1999,22,,TX,Raw,MR-Jr,101.2,105,220,230,240,240,142.5,150,157.5,157.5,215,227.5,240,240,637.5,SBD
1,Yehia Aboelnaga,,M,1999,22,,MN,Raw,MR-Jr,107.8,120,290,-300,305,305,192.5,202.5,211,211,315,335,350,350,866,SBD
2,Grant Ivarson,,M,2002,20,,WI,Raw,MR-Jr,117,120,290,305,315,315,190,198,203.5,203.5,290,310,317.5,317.5,836,SBD
3,Luke Bussard,,M,1998,23,,FL,Raw,MR-Jr,118,120,205,207.5,232.5,232.5,160,172.5,-187.5,172.5,205,215,-222.5,215,620,SBD
1,Pablo Olivares,,M,1999,22,,TX,Raw,MR-Jr,176.8,120+,347.5,367.5,377.5,377.5,192.5,200,205,205,325,-342.5,-342.5,325,907.5,SBD
1,Layne Norton,,M,1981,40,,FL,Raw,MR-M1,92.27,93,242.5,255,260,260,145,152.5,157.5,157.5,275,285,295,295,712.5,SBD
2,Ray Padilla,,M,1980,41,,NJ,Raw,MR-M1,86.85,93,237.5,247.5,252.5,252.5,107.5,115,-120,115,272.5,-287.5,-287.5,272.5,640,SBD
3,Steve Babcock,,M,1981,41,,CA,Raw,MR-M1,91.31,93,200,207.5,210,210,137.5,142.5,147.5,147.5,247.5,257.5,-265,257.5,615,SBD
4,Darren Nemow,,M,1973,48,,FL,Raw,MR-M1,88.58,93,205,215,227.5,227.5,120,125,127.5,127.5,205,227.5,-232.5,227.5,582.5,SBD
1,LS McClain,,M,1978,43,,TX,Raw,MR-M1,103.8,105,300,310,320,320,210,215,217.5,217.5,305,317.5,327.5,327.5,865,SBD
2,Timothy Mercer,,M,1979,42,,OR,Raw,MR-M1,103.8,105,245,260,270,270,175,185,-190,185,265,280,292.5,292.5,747.5,SBD
1,KJ Cameron,,M,1976,45,,NV,Raw,MR-M1,118.6,120,185,205,225,225,175,-180,-180,175,285,305,315,315,715,SBD
2,Jonathan Jurewicz,,M,1980,42,,MD,Raw,MR-M1,111.4,120,132.5,145,157.5,157.5,70,72.5,75,75,152.5,162.5,167.5,167.5,400,SBD
1,David Kulbacki,,M,1977,44,,PA,Raw,MR-M1,169.8,120+,250,270,-285,270,180,190,-195,190,255,275,290,290,750,SBD
2,Michael Jean Sr,,M,1979,43,,FL,Raw,MR-M1,174.4,120+,225,232.5,237.5,237.5,170,175,180,180,250,260,270,270,687.5,SBD
1,Edward Ruland,,M,1972,50,,FL,Raw,MR-M2,92.45,93,210,227.5,-230,227.5,155,165,170,170,235,247.5,257.5,257.5,655,SBD
2,Gene Santomaritno,,M,1964,57,,MD,Raw,MR-M2,91.4,93,190,205,-212.5,205,130,135,137.5,137.5,225,242.5,-260,242.5,585,SBD
1,Chris Engebretson,,M,1969,53,,MA,Raw,MR-M2,104.4,105,215.5,228,233,233,148,-150.5,-150.5,148,223,230.5,235.5,235.5,616.5,SBD
2,Kirk Wiley,,M,1965,57,,MI,Raw,MR-M2,103.6,105,220,230,235,235,107.5,117.5,120,120,202.5,212.5,217.5,217.5,572.5,SBD
3,Andrew Paige,,M,1966,55,,FL,Raw,MR-M2,94.9,105,102.5,125,-142.5,125,122.5,132.5,140,140,180,205,230,230,495,SBD
1,Jason Pearson #1,,M,1971,51,,FL,Raw,MR-M2,110.25,120,160,167.5,175,175,-130,130,-132.5,130,220,227.5,232.5,232.5,537.5,SBD
2,Keith Carlascio,,M,1969,52,,FL,Raw,MR-M2,109.15,120,157.5,167.5,180,180,100,110,117.5,117.5,177.5,192.5,200,200,497.5,SBD
1,Timothy Edwards,,M,1964,58,,AZ,Raw,MR-M2,226.7,120+,200,220,-227.5,220,115,-125,-125,115,220,230,-240,230,565,SBD
1,Steven Carpenter,,M,1959,63,,FL,Raw,MR-M3,87.52,93,120,135,137.5,137.5,-117.5,117.5,122.5,122.5,-132.5,132.5,147.5,147.5,407.5,SBD
1,Rory McCoy,,M,1955,66,,PA,Raw,MR-M3,104.52,105,170,182.5,190,190,115,122.5,130,130,220,232.5,-237.5,232.5,552.5,SBD
2,Virgil Diaz,,M,1960,61,,FL,Raw,MR-M3,103.67,105,180,190,-195,190,-102.5,102.5,105,105,205,-220,220,220,515,SBD
1,Robert Cross,,M,1957,65,,RI,Raw,MR-M3,109.38,120,155,167.5,177.5,177.5,-110,110,120,120,180,195,205,205,502.5,SBD
2,Wilfred Kooser,,M,1959,62,,NE,Raw,MR-M3,113.7,120,135,147.5,155,155,-85,-95,95,95,165,185,-195,185,435,SBD
3,Michael Bitting,,M,1956,65,,FL,Raw,MR-M3,117.08,120,135,140,145,145,115,120,-125,120,145,155,160,160,425,SBD
1,Richard Bettina,,M,1957,64,,MA,Raw,MR-M3,130.4,120+,207.5,215,227.5,227.5,120,125,-127.5,125,207.5,215,-227.5,215,567.5,SBD
1,John M Alderman,,M,1948,73,,FL,Raw,MR-M4,83.4,93,100,110,,110,100,107.5,-112.5,107.5,125,135,142.5,142.5,360,SBD
1,Bruce Barry,,M,1952,69,,PA,Raw,MR-M4,99.4,105,190,-213.5,213.5,213.5,70,80,85,85,175,190,202.5,202.5,501,SBD
2,Michael Dollard,,M,1949,72,,FL,Raw,MR-M4,96.15,105,-105,105,117.5,117.5,90,-102.5,-102.5,90,167.5,182.5,-190,182.5,390,SBD
1,Kaden Gammelgaard,,M,2004,17,,IL,Raw,MR-Sj,96.25,105,235,-247.5,-247.5,235,142.5,147.5,155,155,255,272.5,-287.5,272.5,662.5,SBD
1,Henrik Chan,,M,2004,17,,TX,Raw,MR-Sj,111.85,120,150,160,170,170,140,147.5,157.5,157.5,175,190,205,205,532.5,SBD
1,Abram Espinoza,,M,2003,18,,AZ,Raw,MR-Sj,120.8,120+,230,240,255,255,125,-135,-137.5,125,205,227.5,-230,227.5,607.5,SBD
